totalyearlycompensation,yearsofexperience,yearsatcompany,Masters_Degree,Bachelors_Degree,Doctorate_Degree,Highschool,Some_College
292000,20,8,1,0,0,0,0
114000,4,4,0,1,0,0,0
80000,6,5,1,0,0,0,0
143000,7,2,1,0,0,0,0
82000,3,3,0,1,0,0,0
71000,1,1,0,1,0,0,0
106000,8,1,0,1,0,0,0
86000,3,3,0,1,0,0,0
130000,8,8,1,0,0,0,0
144000,10,2,1,0,0,0,0
71000,1,1,0,0,0,0,1
