totalyearlycompensation,yearsofexperience,yearsatcompany,Masters_Degree,Bachelors_Degree,Doctorate_Degree,Highschool,Some_College
70000,15,15,1,0,0,0,0
90000,2,2,1,0,0,0,0
177000,9,1,1,0,0,0,0
120000,1,1,0,1,0,0,0
110000,4,3,1,0,0,0,0
