totalyearlycompensation,yearsofexperience,yearsatcompany,Masters_Degree,Bachelors_Degree,Doctorate_Degree,Highschool,Some_College
143000,1,4,1,0,0,0,0
100000,2,2,1,0,0,0,0
190000,6,1,1,0,0,0,0
140000,3,3,1,0,0,0,0
103000,4,4,0,1,0,0,0
149000,4,3,0,1,0,0,0
188000,7,3,1,0,0,0,0
92000,3,0,0,1,0,0,0
174000,14,6,1,0,0,0,0
89000,3,1,0,1,0,0,0
87000,3,3,0,1,0,0,0
130000,10,1,0,1,0,0,0
75000,3,3,0,1,0,0,0
140000,8,3,1,0,0,0,0
70000,1,1,0,1,0,0,0
195000,25,5,1,0,0,0,0
100000,2,2,0,1,0,0,0
220000,8,3,1,0,0,0,0
102000,5,3,0,1,0,0,0
81000,1,0,0,1,0,0,0
130000,4,4,1,0,0,0,0
105000,2,2,0,1,0,0,0
126000,5,5,1,0,0,0,0
95000,4,4,0,1,0,0,0
195000,1,1,1,0,0,0,0
110000,2,0,0,1,0,0,0
250000,11,3,1,0,0,0,0
80000,1,1,0,1,0,0,0
218000,18,3,0,1,0,0,0
97000,2,2,0,1,0,0,0
160000,4,4,1,0,0,0,0
159000,10,4,0,1,0,0,0
435000,25,15,0,1,0,0,0
180000,7,5,0,1,0,0,0
360000,6,5,1,0,0,0,0
71000,0,0,0,1,0,0,0
118000,5,3,1,0,0,0,0
170000,10,7,1,0,0,0,0
150000,2,1,1,0,0,0,0
440000,19,3,0,1,0,0,0
115000,6,0,1,0,0,0,0
290000,10,2,0,1,0,0,0
177000,4,4,1,0,0,0,0
165000,13,6,1,0,0,0,0
138000,5,5,0,1,0,0,0
182000,11,4,1,0,0,0,0
31000,0,0,0,1,0,0,0
120000,6,3,0,1,0,0,0
85000,3,3,0,1,0,0,0
98000,3,2,0,1,0,0,0
170000,3,0,1,0,0,0,0
209000,10,9,0,1,0,0,0
259000,6,1,1,0,0,0,0
115000,4,4,1,0,0,0,0
106000,8,4,0,1,0,0,0
158000,3,2,1,0,0,0,0
85000,4,2,0,1,0,0,0
146000,8,3,0,1,0,0,0
98000,2,1,0,1,0,0,0
101000,8,2,1,0,0,0,0
248000,20,10,0,1,0,0,0
178000,4,3,1,0,0,0,0
95000,2,1,0,1,0,0,0
113000,3,0,0,1,0,0,0
94000,8,3,0,1,0,0,0
80000,1,0,0,1,0,0,0
280000,7,0,0,0,1,0,0
76000,1,1,0,1,0,0,0
167000,8,3,1,0,0,0,0
335000,5,5,1,0,0,0,0
150000,15,10,0,1,0,0,0
202000,3,0,1,0,0,0,0
130000,7,1,1,0,0,0,0
140000,6,1,0,1,0,0,0
95000,1,1,0,1,0,0,0
165000,5,0,1,0,0,0,0
158000,2,0,1,0,0,0,0
120000,4,2,1,0,0,0,0
200000,20,0,0,1,0,0,0
122000,6,2,0,1,0,0,0
165000,4,2,0,1,0,0,0
149000,8,3,1,0,0,0,0
123000,3,1,0,1,0,0,0
