totalyearlycompensation,yearsofexperience,yearsatcompany,Masters_Degree,Bachelors_Degree,Doctorate_Degree,Highschool,Some_College
196000,11,1,1,0,0,0,0
192000,10,10,1,0,0,0,0
116000,6,6,1,0,0,0,0
105000,6,4,0,1,0,0,0
375000,11,4,0,1,0,0,0
155000,4,1,1,0,0,0,0
161000,7,3,1,0,0,0,0
233000,20,1,1,0,0,0,0
174000,1,1,0,0,1,0,0
196000,8,0,1,0,0,0,0
188000,10,2,1,0,0,0,0
102000,7,4,0,1,0,0,0
178000,4,1,1,0,0,0,0
158000,20,10,1,0,0,0,0
242000,10,1,1,0,0,0,0
195000,17,17,1,0,0,0,0
195000,12,6,1,0,0,0,0
121000,5,1,1,0,0,0,0
81000,5,5,1,0,0,0,0
243000,2,2,0,1,0,0,0
111000,1,1,0,1,0,0,0
123000,6,3,1,0,0,0,0
458000,8,2,1,0,0,0,0
304000,11,0,0,1,0,0,0
170000,0,0,0,1,0,0,0
155000,10,3,0,1,0,0,0
82000,0,0,0,1,0,0,0
97000,4,4,0,1,0,0,0
95000,1,1,0,1,0,0,0
109000,5,3,0,1,0,0,0
84000,1,1,0,1,0,0,0
60000,1,1,0,0,0,0,1
