totalyearlycompensation,yearsofexperience,yearsatcompany,Masters_Degree,Bachelors_Degree,Doctorate_Degree,Highschool,Some_College
90000,4,4,0,1,0,0,0
212000,9,5,0,0,1,0,0
318000,12,12,0,1,0,0,0
214000,16,2,0,1,0,0,0
210000,15,1,1,0,0,0,0
183000,8,3,0,1,0,0,0
56000,13,5,1,0,0,0,0
212000,13,1,1,0,0,0,0
124000,6,5,1,0,0,0,0
121000,3,3,1,0,0,0,0
92000,4,4,0,1,0,0,0
301000,20,12,0,1,0,0,0
89000,2,2,0,1,0,0,0
