totalyearlycompensation,yearsofexperience,yearsatcompany,Masters_Degree,Bachelors_Degree,Doctorate_Degree,Highschool,Some_College
210000,3,2,1,0,0,0,0
169000,15,10,1,0,0,0,0
276000,16,4,1,0,0,0,0
187000,4,0,1,0,0,0,0
290000,10,1,1,0,0,0,0
115000,7,4,1,0,0,0,0
308000,20,13,0,0,1,0,0
163000,5,5,1,0,0,0,0
237000,19,4,1,0,0,0,0
82000,4,4,1,0,0,0,0
165000,22,7,1,0,0,0,0
130000,3,3,1,0,0,0,0
153000,0,0,1,0,0,0,0
280000,14,1.5,1,0,0,0,0
190000,7,7,1,0,0,0,0
170000,15,2,1,0,0,0,0
165000,8,3,1,0,0,0,0
361000,14,6,1,0,0,0,0
105000,0,0,1,0,0,0,0
140000,12,4,1,0,0,0,0
254000,6,0,1,0,0,0,0
266000,4,3,1,0,0,0,0
275000,20,1,0,0,1,0,0
120000,5,5,1,0,0,0,0
134000,5,4,1,0,0,0,0
77000,0,0,1,0,0,0,0
248000,15,0,1,0,0,0,0
244000,5,1,1,0,0,0,0
282000,20,3,1,0,0,0,0
225000,8,8,1,0,0,0,0
225000,8,8,1,0,0,0,0
120000,7,2,0,1,0,0,0
152000,3,1,0,1,0,0,0
161000,20,15,0,1,0,0,0
140000,7,1,0,1,0,0,0
108000,4,2,0,1,0,0,0
200000,8,2,1,0,0,0,0
175000,20,6,1,0,0,0,0
116000,2,2,0,1,0,0,0
93000,1,0,0,1,0,0,0
252000,7,6,0,1,0,0,0
120000,14,7,0,0,0,0,1
78000,0,0,0,1,0,0,0
375000,12,3,0,1,0,0,0
180000,8,8,0,1,0,0,0
153000,5,1,0,1,0,0,0
218000,4,4,1,0,0,0,0
105000,3,2,0,1,0,0,0
254000,6,0,0,1,0,0,0
115000,10,3,0,1,0,0,0
90000,2,0,0,1,0,0,0
626000,8,2,0,1,0,0,0
240000,3,3,0,1,0,0,0
207000,10,7,1,0,0,0,0
251000,15,15,1,0,0,0,0
160000,3,3,1,0,0,0,0
166000,6,6,1,0,0,0,0
132000,9,5,0,1,0,0,0
170000,22,0,1,0,0,0,0
126000,7,7,1,0,0,0,0
93000,5,5,0,1,0,0,0
93000,0,0,0,1,0,0,0
205000,3,0,1,0,0,0,0
90000,4,3,1,0,0,0,0
262000,12,11,0,0,0,0,1
221000,8,1,0,1,0,0,0
72000,0,0,0,1,0,0,0
115000,10,3,1,0,0,0,0
144000,0,0,0,1,0,0,0
200000,8,8,1,0,0,0,0
340000,35,23,1,0,0,0,0
398000,23,14,0,0,0,0,1
163000,9,2,1,0,0,0,0
363000,20,3,0,1,0,0,0
124000,0,0,1,0,0,0,0
134000,1,1,0,1,0,0,0
138000,0,0,0,1,0,0,0
108000,1,0,0,1,0,0,0
213000,6,1,0,1,0,0,0
148000,20,12,1,0,0,0,0
128000,0,0,1,0,0,0,0
224000,2,1,1,0,0,0,0
155000,15,7,0,1,0,0,0
180000,2,0,1,0,0,0,0
104000,1,1,0,1,0,0,0
137000,5,0,1,0,0,0,0
143000,6,1,1,0,0,0,0
138000,9,2,1,0,0,0,0
290000,17,6,1,0,0,0,0
210000,4,2,0,1,0,0,0
245000,8,2,0,1,0,0,0
149000,6,2,0,1,0,0,0
138000,3,1,1,0,0,0,0
106000,3,2,0,1,0,0,0
92000,1,1,0,1,0,0,0
115000,3,3,0,1,0,0,0
282000,11,2,1,0,0,0,0
222000,14,4,0,1,0,0,0
98000,6,6,0,1,0,0,0
91000,5,5,0,1,0,0,0
230000,10,1,0,1,0,0,0
420000,7,1,0,0,0,0,1
96000,3,2,1,0,0,0,0
139000,15,15,1,0,0,0,0
78000,2,1,0,1,0,0,0
85000,5,5,0,1,0,0,0
138000,14,4,0,1,0,0,0
128000,1,0,0,1,0,0,0
97000,3,3,0,1,0,0,0
40000,0,0,0,0,0,0,1
356000,9,0,0,1,0,0,0
362000,16,0,1,0,0,0,0
182000,4,1,1,0,0,0,0
245000,5,0,0,1,0,0,0
181000,6,0,0,1,0,0,0
300000,10,2,1,0,0,0,0
362000,8,1,0,0,0,1,0
138000,7,3,0,1,0,0,0
247000,3,3,0,1,0,0,0
174000,7,1,1,0,0,0,0
310000,20,3,1,0,0,0,0
239000,6,2,0,1,0,0,0
123000,7,2,0,1,0,0,0
89000,4,4,0,1,0,0,0
80000,1,0,0,1,0,0,0
130000,4,4,1,0,0,0,0
90000,3,3,0,1,0,0,0
162000,2,1,1,0,0,0,0
209000,9,3,1,0,0,0,0
156000,3,0,1,0,0,0,0
155000,1,1,0,1,0,0,0
180000,2,0,1,0,0,0,0
354000,7,7,0,1,0,0,0
310000,27,16,0,1,0,0,0
262000,13,0,0,0,0,0,1
244000,8,3,0,1,0,0,0
184000,18,6,0,1,0,0,0
227000,3,1,0,1,0,0,0
161000,2,2,0,1,0,0,0
108000,2,2,1,0,0,0,0
175000,13,1,1,0,0,0,0
136000,10,3,0,1,0,0,0
225000,9,0,0,1,0,0,0
99000,1,1,0,1,0,0,0
350000,12,8,0,1,0,0,0
160000,5,5,0,1,0,0,0
220000,16,3,0,1,0,0,0
116000,2,2,0,1,0,0,0
166000,40,40,1,0,0,0,0
173000,10,4,1,0,0,0,0
110000,10,8,0,1,0,0,0
159000,5,1,0,1,0,0,0
265000,5,2,1,0,0,0,0
170000,5,2,1,0,0,0,0
256000,6,4,0,1,0,0,0
362000,7,0,0,1,0,0,0
124000,13,13,0,1,0,0,0
192000,4,0,1,0,0,0,0
254000,20,3,1,0,0,0,0
370000,20,2,0,0,0,0,1
142000,4,4,1,0,0,0,0
149000,5,5,1,0,0,0,0
137000,6,2,0,1,0,0,0
298000,12,2,1,0,0,0,0
75000,0,0,0,1,0,0,0
372000,6,0,0,1,0,0,0
155000,1,1,0,1,0,0,0
194000,4,0,0,1,0,0,0
181000,2,0,0,1,0,0,0
100000,3,3,0,1,0,0,0
120000,3,2,1,0,0,0,0
117000,10,8,0,1,0,0,0
270000,6,6,1,0,0,0,0
136000,6,6,1,0,0,0,0
286000,4,4,0,0,1,0,0
135000,10,4,0,1,0,0,0
148000,2,0,0,1,0,0,0
298000,6,0,0,1,0,0,0
154000,7,1,0,1,0,0,0
155000,2,0,0,1,0,0,0
104000,3,2,0,1,0,0,0
94000,4,4,0,1,0,0,0
146000,7,7,1,0,0,0,0
155000,8,5,0,1,0,0,0
185000,8,0,1,0,0,0,0
334000,15,2,0,1,0,0,0
90000,4,2,0,1,0,0,0
135000,4,0,1,0,0,0,0
311000,6,2,1,0,0,0,0
113000,6,6,0,1,0,0,0
128000,3,3,0,1,0,0,0
154000,8,1,0,1,0,0,0
210000,15,8,0,1,0,0,0
213000,5,2,0,1,0,0,0
207000,4,0,0,1,0,0,0
142000,11,6,0,1,0,0,0
185000,5,5,1,0,0,0,0
210000,3,2,0,1,0,0,0
124000,15,2,0,1,0,0,0
162000,9,2,0,1,0,0,0
