totalyearlycompensation,yearsofexperience,yearsatcompany,Masters_Degree,Bachelors_Degree,Doctorate_Degree,Highschool,Some_College
253000,0,0,0,0,1,0,0
172000,5,0,1,0,1,0,0
255000,5,0,1,0,0,0,0
144000,0,0,1,0,0,0,0
175000,3,2,1,0,0,0,0
161000,6,2,1,0,0,0,0
200000,3,0,1,0,0,0,0
175000,0,0,1,0,0,0,0
270000,12,12,1,0,0,0,0
155000,3,2,1,0,0,0,0
191000,20,5,1,0,0,0,0
213000,5,5,1,0,0,0,0
405000,21,4,1,0,0,0,0
200000,15,5,1,0,0,0,0
159000,3,3,1,0,0,0,0
168000,1,1,1,0,0,0,0
190000,5,5,1,0,0,0,0
240000,12,2,1,0,0,0,0
300000,8,2,1,0,0,0,0
156000,1,1,1,0,0,0,0
146000,3,2,1,0,0,0,0
164000,5,1,1,0,0,0,0
200000,3,5,1,0,0,0,0
194000,4,0,1,0,0,0,0
188000,4,4,1,0,0,0,0
204000,4,0,1,0,0,0,0
160000,1,1,0,0,1,0,0
136000,1,1,1,0,0,0,0
433000,6,0,1,0,0,0,0
160000,0,0,1,0,0,0,0
149000,0,0,0,0,1,0,0
250000,6,6,1,0,0,0,0
156000,4,1.5,1,0,0,0,0
136000,0,0.3,1,0,0,0,0
340000,7,2.5,0,0,1,0,0
210000,10,1,1,0,0,0,0
379000,15,11,1,0,0,0,0
262000,0,0,1,0,0,0,0
190000,3,0,1,0,0,0,0
158000,0,0,1,0,0,0,0
152000,1,1,1,0,0,0,0
260000,7,7,1,0,0,0,0
165000,2,2,1,0,0,0,0
174000,3,0,1,0,0,0,0
405000,15,3,0,0,1,0,0
238000,14,2,1,0,0,0,0
550000,13,3,1,0,0,0,0
120000,5,1,1,0,0,0,0
167000,0,0,1,0,0,0,0
165000,1,0,1,0,0,0,0
169000,3,0,1,0,0,0,0
160000,1,0,1,0,0,0,0
153000,5,1.5,1,0,0,0,0
307000,21,1,1,0,0,0,0
215000,3,0,1,0,0,0,0
286000,7,0,1,0,0,0,0
370000,8,1,1,0,1,0,0
240000,14,0,1,0,1,0,0
450000,14,4,1,0,0,0,0
194000,4,0,1,0,0,0,0
451000,22,8,1,0,0,0,0
179000,7,1,1,0,0,0,0
180000,0,0,1,0,0,0,0
177000,16,4,1,0,0,0,0
210000,2,5,1,0,0,0,0
199000,8,8,1,0,0,0,0
167000,2,0,1,0,0,0,0
215000,8,4,1,0,0,0,0
200000,3,3,1,0,0,0,0
180000,3,0,1,0,0,0,0
318000,12,12,1,0,0,0,0
310000,12,12,1,0,0,0,0
280000,18,2,1,0,0,0,0
240000,8,4,1,0,0,0,0
525000,16,0,1,0,1,0,0
180000,2,0,1,0,0,0,0
224000,4,0,1,0,0,0,0
178000,0,0,1,0,0,0,0
193000,1,1,1,0,0,0,0
229000,5,1,1,0,0,0,0
193000,5,5,1,0,0,0,0
302000,13,13,0,0,1,0,0
187000,6,0,1,0,0,0,0
160000,1,0,1,0,0,0,0
258000,12,1,1,0,0,0,0
188000,11,8,1,0,0,0,0
184000,7,6,1,0,0,0,0
155000,0,0,1,0,0,0,0
185000,0,0,1,0,0,0,0
142000,0,0,1,0,0,0,0
277000,5,0,1,0,0,0,0
170000,14,14,1,0,0,0,0
253000,3,0,1,0,0,0,0
488000,21,0,1,0,0,0,0
450000,15,0,1,0,0,0,0
455000,7,7,0,0,1,0,0
251000,8,0,1,0,0,0,0
400000,10,5,0,0,1,0,0
160000,5,3,1,0,0,0,0
144000,1,1,0,0,1,0,0
161000,4,1.5,1,0,0,0,0
225000,8,1,1,0,1,0,0
335000,8,0,1,0,0,0,0
345000,10,5,0,0,1,0,0
165000,3,0,1,0,0,0,0
142000,0,0,1,0,0,0,0
202000,4,4,1,0,0,0,0
221000,9,2,1,0,0,0,0
182000,3,3,1,0,0,0,0
430000,15,10,1,0,0,0,0
185000,2,0,1,0,0,0,0
159000,0,0,1,0,0,0,0
315000,8,2,1,0,0,0,0
240000,7,3,1,0,0,0,0
340000,16,2,1,0,0,0,0
180000,5,2.7,1,0,0,0,0
185000,3,2,1,0,1,0,0
282000,5,0,1,0,0,0,0
355000,16,2,1,0,0,0,0
174000,3,3,0,0,1,0,0
158000,13,7,1,0,0,0,0
411000,16,0,1,0,0,0,0
268000,20,0,1,0,0,0,0
231000,2,0,1,0,0,0,0
228000,3,3,1,0,0,0,0
172000,14,2,1,0,0,0,0
190000,3,0,1,0,0,0,0
817000,15,0,1,0,0,0,0
265000,19,1,1,0,0,0,0
375000,10,4,1,0,0,0,0
785000,16,0,1,0,0,0,0
122000,6,3,1,0,0,0,0
170000,6,6,1,0,0,0,0
240000,5,2,1,0,0,0,0
230000,6,0,1,0,0,0,0
675000,17,0,1,0,0,0,0
665000,15,0,1,0,0,0,0
340000,5,0,1,0,0,0,0
235000,11,10,1,0,0,0,0
284000,10,1,0,0,1,0,0
270000,15,0,1,0,0,0,0
211000,8,6,1,0,0,0,0
252000,6,6,1,0,0,0,0
190000,4,4,1,0,0,0,0
172000,3,3,1,0,0,0,0
200000,3,3,1,0,0,0,0
200000,7,5,1,0,0,0,0
327000,7,2,1,0,0,0,0
291000,7,3.5,1,0,0,0,0
320000,10,5,1,0,0,0,0
290000,11,5,1,0,0,0,0
360000,10,5,1,0,0,0,0
187000,4,1,1,0,0,0,0
540000,19,15,1,0,0,0,0
142000,0,0,1,0,0,0,0
390000,15,1,1,0,0,0,0
169000,8,3,1,0,0,0,0
189000,15,6.5,1,0,0,0,0
208000,10,4,1,0,0,0,0
205000,4,0,1,0,0,0,0
227000,6,0,1,0,0,0,0
200000,7,0,1,0,0,0,0
187000,3,0,1,0,0,0,0
200000,3,3,1,0,0,0,0
333000,11,7,1,0,0,0,0
245000,4,2,1,0,0,0,0
700000,7,1,0,0,1,0,0
195000,3,1.5,1,0,0,0,0
168000,2,0,1,0,0,0,0
230000,10,1,1,0,0,0,0
173000,14,5,1,0,0,0,0
300000,5,5,1,0,0,0,0
149000,0,0,1,0,0,0,0
337000,6,0,1,0,0,0,0
193000,1,0,1,0,0,0,0
148000,0,0,1,0,0,0,0
301000,8,0,1,0,0,0,0
400000,11,3,1,0,0,0,0
189000,2,2,1,0,0,0,0
294000,7,6,1,0,0,0,0
160000,0,0,1,0,0,0,0
500000,15,0,0,0,1,0,0
600000,15,1,0,0,1,0,0
252000,3,0,1,0,0,0,0
340000,8,1,1,0,0,0,0
700000,15,4,1,0,0,0,0
230000,6,4,1,0,0,0,0
300000,23,14,1,0,0,0,0
260000,10,8,1,0,0,0,0
486000,35,15,1,0,0,0,0
225000,9,2,1,0,0,0,0
250000,6,6,1,0,0,0,0
183000,2,0,1,0,0,0,0
174000,4,3,1,0,0,0,0
165000,4,4,1,0,0,0,0
300000,20,14,1,0,0,0,0
215000,4,3,1,0,0,0,0
239000,0,0,0,0,1,0,0
145000,0,0,0,1,0,0,0
243000,5,0.5,1,0,0,0,0
460000,22,3,1,0,0,0,0
200000,17,3,1,0,0,0,0
750000,20,20,1,0,0,0,0
225000,4,2,1,0,0,0,0
160000,3,0,1,0,0,0,0
300000,20,6,1,0,0,0,0
180000,3,0,1,0,0,0,0
210000,4,2,1,0,0,0,0
237000,4,0,1,0,0,0,0
205000,7,1,1,0,0,0,0
231000,15,4,0,0,1,0,0
235000,8,4,1,0,0,0,0
175000,3,0,1,0,0,0,0
215000,2,0,1,0,0,0,0
365000,20,2,1,0,0,0,0
220000,2,2,1,0,0,0,0
142000,1,1,1,0,0,0,0
235000,5,3,1,0,0,0,0
184000,8,4.5,1,0,0,0,0
200000,7,1,1,0,0,0,0
320000,5,5,1,0,0,0,0
281000,18,6,1,0,0,0,0
250000,4,1,1,0,0,0,0
209000,12,1,1,0,0,0,0
215000,7,7,1,0,0,0,0
344000,9,5,1,0,1,0,0
213000,0,0,1,0,0,0,0
186000,2,2,1,0,0,0,0
187000,2,2,0,0,1,0,0
162000,2,2,1,0,0,0,0
250000,18,3,1,0,0,0,0
194000,4,2,1,0,0,0,0
350000,6,0,1,0,0,0,0
280000,8,6,1,0,0,0,0
260000,7,0,1,0,0,0,0
194000,2,0,1,0,0,0,0
236000,5,2.5,1,0,0,0,0
460000,4,2,0,0,1,0,0
184000,4,4,1,0,0,0,0
160000,10,3,1,0,0,0,0
295000,3,2,1,0,0,0,0
540000,10,3,0,0,1,0,0
134000,4,0,1,0,0,0,0
150000,1,1,1,0,0,0,0
170000,1,1,1,0,0,0,0
140000,2,2,1,0,0,0,0
198000,7,3,1,0,0,0,0
286000,16,1,1,0,0,0,0
230000,4,0,1,0,0,0,0
178000,5,0,1,0,0,0,0
575000,12,0,1,0,0,0,0
193000,15,12,1,0,0,0,0
300000,3,3,1,0,0,0,0
250000,15,2,1,0,0,0,0
216000,3,0,1,0,0,0,0
277000,7,3,1,0,0,0,0
300000,3,1,1,0,0,0,0
240000,3,3,1,0,0,0,0
146000,6,1,1,0,0,0,0
220000,4,2,1,0,0,0,0
170000,4,1,1,0,0,0,0
280000,13,2,1,0,0,0,0
235000,8,5,1,0,1,0,0
210000,5,5,1,0,0,0,0
213000,7,0,1,0,0,0,0
250000,14,12,1,0,0,0,0
135000,4,1,1,0,0,0,0
225000,3,3,1,0,0,0,0
175000,3,0,1,0,0,0,0
397000,17,10,1,0,0,0,0
196000,3,0,1,0,0,0,0
200000,26,2,1,0,0,0,0
450000,20,4,1,0,0,0,0
270000,27,1,0,0,1,0,0
168000,2,0,1,0,0,0,0
205000,1,1,1,0,0,0,0
346000,12,0,0,0,1,0,0
230000,3,3,1,0,0,0,0
210000,15,4,1,0,0,0,0
312000,8,1,1,0,0,0,0
168000,3,0,1,0,0,0,0
347000,8,0,1,0,0,0,0
251000,5,0,0,0,1,0,0
169000,4,4,1,0,0,0,0
201000,20,0,1,0,0,0,0
300000,8,2,1,0,0,0,0
445000,18,3,1,0,0,0,0
218000,12,0,1,0,0,0,0
249000,13,12,1,0,0,0,0
225000,8,4,1,0,0,0,0
300000,17,5,1,0,0,0,0
163000,6,3,1,0,0,0,0
200000,8,7,1,0,0,0,0
400000,6,6,0,0,1,0,0
272000,9,2,1,0,0,0,0
191000,5,2,1,0,0,0,0
240000,16,5,1,0,0,0,0
210000,10,6,1,0,0,0,0
159000,15,9,1,0,0,0,0
375000,13,3,1,0,0,0,0
207000,3,3,1,0,0,0,0
170000,2,0,1,0,0,0,0
420000,15,0,1,0,0,0,0
210000,3,3,1,0,0,0,0
207000,3,0,1,0,0,0,0
246000,12,3,1,0,0,0,0
243000,6,6,1,0,0,0,0
250000,20,2,1,0,0,0,0
209000,1,0,1,0,0,0,0
462000,18,6,1,0,0,0,0
365000,3,3,1,0,0,0,0
260000,10,3,1,0,0,0,0
242000,8,2,1,0,0,0,0
210000,9,5,1,0,0,0,0
340000,12,5,1,0,0,0,0
520000,20,4,1,0,0,0,0
435000,14,3,1,0,0,0,0
152000,0,0,1,0,0,0,0
540000,9,2,1,0,0,0,0
230000,3,1,1,0,0,0,0
135000,2,0,1,0,0,0,0
630000,9,2,1,0,0,0,0
390000,10,7,1,0,0,0,0
202000,15,3,1,0,0,0,0
310000,15,4,1,0,0,0,0
187000,6,0,1,0,0,0,0
250000,8,7,1,0,0,0,0
135000,2,3,1,0,0,0,0
500000,12,6,0,0,1,0,0
153000,1,1,1,0,0,0,0
185000,1,0,1,0,0,0,0
150000,0,0,1,0,0,0,0
476000,15,0,1,0,0,0,0
177000,8,6,1,0,0,0,0
358000,18,4,1,0,0,0,0
175000,15,6,1,0,0,0,0
183000,2,1,1,0,0,0,0
198000,3,3,1,0,0,0,0
260000,9,3,1,0,0,0,0
530000,16,4,1,0,0,0,0
530000,12,4,1,0,0,0,0
235000,6,4,1,0,0,0,0
200000,10,3,1,0,0,0,0
205000,2,0,1,0,0,0,0
221000,8,4,0,0,1,0,0
300000,15,3,1,0,0,0,0
275000,3,3,1,0,0,0,0
198000,7,4,1,0,0,0,0
200000,14,14,1,0,0,0,0
140000,3,3,1,0,0,0,0
178000,2,0,1,0,0,0,0
170000,2,2,1,0,0,0,0
211000,10,4,1,0,0,0,0
357000,17,3,1,0,0,0,0
181000,5,3,1,0,0,0,0
273000,5,2,1,0,0,0,0
585000,9,0.5,0,0,1,0,0
260000,15,3,1,0,0,0,0
160000,3,3,1,0,0,0,0
275000,13,1,1,0,0,0,0
278000,9,9,1,0,0,0,0
144000,2,0,1,0,0,0,0
311000,14,4,1,0,0,0,0
300000,3,0,1,0,0,0,0
384000,6,3,1,0,0,0,0
165000,10,5,1,0,0,0,0
243000,5,1,1,0,0,0,0
270000,20,2,1,0,0,0,0
192000,6,3,1,0,0,0,0
142000,2,0,1,0,0,0,0
165000,0,0,1,0,0,0,0
191000,0,0,1,0,0,0,0
202000,15,4,1,0,0,0,0
234000,25,1,1,0,0,0,0
251000,6,6,0,0,1,0,0
200000,8,1,1,0,0,0,0
260000,20,12,1,0,0,0,0
160000,0,0,1,0,0,0,0
235000,6,1,1,0,0,0,0
320000,8,4,1,0,0,0,0
102000,2,1,1,0,0,0,0
224000,10,3,1,0,0,0,0
188000,2,0,1,0,0,0,0
155000,2,0,1,0,0,0,0
230000,4,0,1,0,0,0,0
282000,18,6,1,0,0,0,0
175000,3,0,1,0,0,0,0
238000,12,0,1,0,0,0,0
362000,14,1,1,0,0,0,0
357000,7,0,1,0,0,0,0
125000,1,1,1,0,0,0,0
142000,3,1,1,0,0,0,0
195000,4,0,1,0,0,0,0
161000,6,0,1,0,0,0,0
160000,8,5,1,0,0,0,0
142000,2,2,0,0,1,0,0
229000,11,8,1,0,0,0,0
407000,7,3,1,0,0,0,0
180000,3,0,1,0,0,0,0
190000,2,2,1,0,0,0,0
225000,3,0,1,0,0,0,0
300000,15,2,1,0,0,0,0
230000,5,0,0,0,1,0,0
190000,7,4,1,0,0,0,0
230000,5,5,1,0,0,0,0
290000,7,7,1,0,0,0,0
145000,2,2,1,0,0,0,0
150000,0,0,1,0,0,0,0
197000,6,0,1,0,0,0,0
180000,8,0,1,0,0,0,0
270000,14,1,1,0,0,0,0
147000,1,0,1,0,0,0,0
161000,2,1,1,0,0,0,0
200000,3,3,1,0,0,0,0
175000,1,0,1,0,0,0,0
230000,2,2,1,0,0,0,0
216000,7,6,1,0,0,0,0
205000,12,7,1,0,0,0,0
150000,0,0,1,0,0,0,0
270000,12,1,1,0,0,0,0
275000,3,0,1,0,0,0,0
162000,3,1,1,0,0,0,0
150000,1,0,1,0,0,0,0
200000,10,1,1,0,0,0,0
302000,14,7,1,0,0,0,0
180000,2,1,1,0,0,0,0
295000,8,3,1,0,0,0,0
200000,3,3,0,0,1,0,0
190000,5,5,1,0,0,0,0
177000,25,3,1,0,0,0,0
248000,15,3,1,0,0,0,0
170000,4,0,1,0,0,0,0
350000,17,5,1,0,0,0,0
240000,18,5,1,0,1,0,0
248000,4,0,1,0,0,0,0
185000,5,0,1,0,0,0,0
350000,13,8.5,1,0,0,0,0
181000,3,0,1,0,0,0,0
300000,17,2,1,0,0,0,0
224000,14,5,1,0,0,0,0
202000,21,19,1,0,0,0,0
232000,7,0,1,0,0,0,0
160000,0,0,1,0,0,0,0
250000,4,1,1,0,0,0,0
251000,7,0,1,0,0,0,0
180000,2,0,1,0,0,0,0
305000,11,10,1,0,0,0,0
165000,9,0,1,0,0,0,0
290000,10,3,1,0,0,0,0
195000,4,1,1,0,0,0,0
399000,14,3,1,0,1,0,0
165000,1,1,1,0,0,0,0
164000,0,0,1,0,0,0,0
258000,6,0,1,0,0,0,0
220000,6,3,1,0,0,0,0
350000,7,0,0,0,1,0,0
222000,4,4,1,0,0,0,0
172000,10,2,1,0,0,0,0
630000,12,0,0,0,1,0,0
222000,6,3,1,0,0,0,0
254000,12,2.3,1,0,0,0,0
207000,10,2,1,0,0,0,0
267000,4,4,1,0,0,0,0
323000,4,4,1,0,0,0,0
210000,7,6,1,0,0,0,0
320000,8,3,0,0,1,0,0
164000,10,4,1,0,0,0,0
296000,7,0,0,0,1,0,0
374000,8,6,1,0,0,0,0
284000,4,0,1,0,0,0,0
588000,13,3,1,0,0,0,0
178000,2,0,1,0,0,0,0
314000,8,6,1,0,1,0,0
205000,7,3,1,0,0,0,0
290000,9,0,1,0,0,0,0
168000,0,0,1,0,0,0,0
156000,4,1,1,0,0,0,0
525000,10,2,1,0,0,0,0
192000,12,1,1,0,0,0,0
243000,10,3,1,0,0,0,0
210000,10,5,1,0,0,0,0
276000,20,4,1,0,0,0,0
173000,1,0,1,0,0,0,0
228000,4,4,1,0,0,0,0
225000,3,3,1,0,0,0,0
137000,0,0,1,0,0,0,0
307000,5,5,1,0,0,0,0
263000,9,6,1,0,0,0,0
520000,7,0,1,0,0,0,0
515000,16,0,1,0,0,0,0
213000,5,3,1,0,0,0,0
188000,5,2,1,0,0,0,0
236000,2,2,1,0,0,0,0
207000,2,0,1,0,0,0,0
218000,2,0,1,0,0,0,0
348000,20,2,0,0,1,0,0
150000,5,1,1,0,0,0,0
384000,15,0,1,0,0,0,0
230000,20,0,0,0,1,0,0
258000,9,8,1,0,0,0,0
740000,11,3,0,0,1,0,0
292000,12,7,1,0,0,0,0
190000,5,2,1,0,0,0,0
170000,0,0,1,0,0,0,0
257000,17,5,1,0,0,0,0
300000,3,0,1,0,0,0,0
140000,1,1,1,0,0,0,0
350000,12,6,1,0,0,0,0
204000,10,0,1,0,0,0,0
168000,3,3,1,0,0,0,0
246000,6,6,1,0,0,0,0
258000,9,7,1,0,0,0,0
158000,6,0,1,0,0,0,0
162000,1,0,1,0,0,0,0
295000,10,3.5,1,0,0,0,0
370000,14,14,1,0,0,0,0
200000,9,4.2,1,0,0,0,0
325000,18,3,1,0,0,0,0
252000,1,1,0,0,1,0,0
215000,3,3,1,0,0,0,0
575000,21,0,1,0,0,0,0
167000,2,0,1,0,0,0,0
427000,9,5,1,0,0,0,0
160000,2,0.5,1,0,0,0,0
184000,3,0,1,0,0,0,0
315000,11,3,1,0,0,0,0
152000,1,1,1,0,0,0,0
230000,6,6,1,0,0,0,0
310000,16,1,1,0,0,0,0
220000,19,7,1,0,0,0,0
190000,2,2,0,0,1,0,0
645000,7,2,1,0,1,0,0
410000,20,3,1,0,0,0,0
242000,3,3,1,0,0,0,0
360000,15,2.5,1,0,0,0,0
190000,2,0,1,0,0,0,0
157000,1,0,1,0,0,0,0
188000,10,1,1,0,0,0,0
214000,9,4,1,0,0,0,0
285000,8,7,1,0,0,0,0
143000,30,5,1,0,0,0,0
280000,9,4,1,0,0,0,0
265000,14,10,1,0,0,0,0
264000,0,0,0,0,1,0,0
260000,15,3,1,0,0,0,0
283000,11,10,1,0,0,0,0
237000,13,5,1,0,0,0,0
257000,0,0,1,0,0,0,0
160000,1,0,1,0,0,0,0
410000,13,1,1,0,0,0,0
267000,6,1,1,0,0,0,0
186000,10,2,1,0,0,0,0
250000,6,6,0,0,1,0,0
232000,7,0,1,0,0,0,0
195000,5,1,1,0,0,0,0
178000,2,0,1,0,0,0,0
229000,2,0,1,0,0,0,0
210000,4,4,1,0,0,0,0
188000,2,1,1,0,0,0,0
167000,2,0,1,0,0,0,0
225000,6,1,1,0,0,0,0
700000,22,3,0,0,1,0,0
240000,5,5,1,0,0,0,0
153000,7,4,1,0,0,0,0
220000,12,8,1,0,0,0,0
165000,4,2,1,0,0,0,0
290000,9,3,1,0,0,0,0
243000,5,0,1,0,0,0,0
243000,12,10,1,0,0,0,0
225000,8,6,1,0,0,0,0
370000,12,6,1,0,0,0,0
207000,6,5,1,0,0,0,0
177000,2,0,1,0,0,0,0
132000,1,1,1,0,0,0,0
300000,7,7,1,0,0,0,0
250000,8,0,1,0,0,0,0
230000,13,7,1,0,0,0,0
220000,6,1,0,0,1,0,0
220000,15,3,1,0,0,0,0
280000,10,7,1,0,0,0,0
140000,1,1,1,0,0,0,0
245000,8,4,1,0,0,0,0
550000,17,1,1,0,0,0,0
196000,11,3,1,0,0,0,0
300000,16,3,1,0,0,0,0
165000,4,1,1,0,0,0,0
220000,9,5,1,0,0,0,0
250000,2,0,1,0,0,0,0
250000,12,6,1,0,0,0,0
153000,4,2,1,0,0,0,0
193000,2,2,1,0,0,0,0
170000,4,3,1,0,0,0,0
365000,15,1,0,0,1,0,0
220000,7,3,1,0,0,0,0
372000,17,15,1,0,0,0,0
257000,6,1,1,0,0,0,0
159000,5,2,1,0,0,0,0
141000,4,2,1,0,0,0,0
405000,15,2,1,0,0,0,0
380000,10,0,1,0,0,0,0
177000,3,0,1,0,0,0,0
152000,4,0,1,0,0,0,0
176000,2,2,1,0,0,0,0
208000,3,3,1,0,0,0,0
232000,4,4,0,0,1,0,0
245000,12,5,1,0,0,0,0
175000,0,0,1,0,0,0,0
190000,15,15,1,0,0,0,0
188000,5,5,1,0,0,0,0
228000,5,0,1,0,0,0,0
350000,8,2,1,0,0,0,0
177000,2,2,1,0,0,0,0
250000,3,1,1,0,0,0,0
183000,2,1,1,0,0,0,0
244000,3,0,1,0,0,0,0
250000,15,5,1,0,0,0,0
300000,9,5,1,0,0,0,0
191000,14,5,1,0,0,0,0
250000,8,2,1,0,0,0,0
240000,6,6,0,0,1,0,0
204000,4,4,1,0,0,0,0
180000,5,0,1,0,0,0,0
171000,4,0,1,0,0,0,0
247000,2,0,1,0,0,0,0
292000,9,5,1,0,0,0,0
140000,15,5,1,0,0,0,0
335000,14,12,1,0,0,0,0
340000,13,0,1,0,0,0,0
150000,3,3,1,0,0,0,0
171000,1,0,1,0,0,0,0
160000,2,2,1,0,0,0,0
540000,18,0,1,0,0,0,0
211000,12,7,1,0,0,0,0
252000,3,2,1,0,0,0,0
560000,23,4,1,0,0,0,0
280000,16,8,1,0,0,0,0
310000,15,1,1,0,1,0,0
334000,10,1,1,0,0,0,0
360000,14,7,1,0,0,0,0
136000,8,4,1,0,0,0,0
352000,4,3,1,0,0,0,0
235000,6,1,1,0,0,0,0
200000,7,2,1,0,0,0,0
153000,1,1,1,0,0,0,0
195000,5,0,1,0,0,0,0
177000,0,0,1,0,0,0,0
205000,12,7,1,0,0,0,0
170000,5,1,1,0,0,0,0
360000,5,5,1,0,0,0,0
191000,1,1,0,0,1,0,0
439000,14,3,1,0,0,0,0
280000,18,9,1,0,0,0,0
171000,1,0,1,0,0,0,0
168000,0,0,1,0,0,0,0
168000,2,2,1,0,0,0,0
280000,20,11,1,0,0,0,0
190000,8,3,1,0,0,0,0
327000,13,0,1,0,0,0,0
335000,14,0,1,0,0,0,0
169000,7,4,1,0,0,0,0
500000,25,5,1,0,0,0,0
253000,7,0,1,0,0,0,0
330000,15,3,1,0,0,0,0
335000,5,1,1,0,1,0,0
210000,2,0,0,0,1,0,0
204000,10,0,1,0,0,0,0
149000,1,1,1,0,0,0,0
477000,35,11,0,0,1,0,0
175000,0,0,1,0,0,0,0
200000,9,3,1,0,0,0,0
250000,25,17,1,0,0,0,0
203000,1,0,1,0,0,0,0
176000,3,1,1,0,0,0,0
200000,4,4,1,0,0,0,0
210000,5,3,1,0,0,0,0
283000,17,0,1,0,0,0,0
419000,3,3,1,0,0,0,0
284000,8,0,1,0,0,0,0
378000,8,0,1,0,0,0,0
287000,14,2,1,0,0,0,0
184000,1,1,1,0,0,0,0
146000,4,0,1,0,0,0,0
390000,12,2,1,0,0,0,0
173000,1,1,1,0,0,0,0
220000,4,0,1,0,0,0,0
143000,8,3,1,0,0,0,0
200000,12,5,1,0,0,0,0
405000,10,1,1,0,0,0,0
191000,0,0,1,0,0,0,0
182000,3,0,1,0,0,0,0
251000,7,7,1,0,0,0,0
360000,30,18,1,0,0,0,0
215000,11,11,1,0,0,0,0
250000,4,0,1,0,0,0,0
265000,7,1,1,0,0,0,0
235000,12,0,0,0,1,0,0
250000,4,4,1,0,0,0,0
400000,17,5,1,0,0,0,0
270000,8,8,1,0,0,0,0
190000,5,5,1,0,0,0,0
170000,4,2,1,0,0,0,0
290000,15,4,1,0,1,0,0
285000,10,4,0,0,1,0,0
250000,14,1,1,0,1,0,0
300000,8,8,1,0,0,0,0
300000,25,1,1,0,0,0,0
300000,12,7,1,0,0,0,0
210000,10,8,1,0,0,0,0
265000,11,3,1,0,0,0,0
151000,0,0,1,0,0,0,0
155000,7,4,1,0,0,0,0
254000,6,5,1,0,0,0,0
195000,3,1,1,0,0,0,0
158000,1,0,1,0,0,0,0
300000,2,1,0,0,1,0,0
210000,4,4,1,0,0,0,0
158000,12,8,1,0,0,0,0
204000,3,3,1,0,0,0,0
203000,4,1,1,0,0,0,0
285000,14,13,1,0,0,0,0
260000,10,1,1,0,0,0,0
480000,15,3,1,0,0,0,0
160000,2,0,1,0,0,0,0
217000,13,9,1,0,0,0,0
333000,5,2,1,0,0,0,0
220000,8,0,1,0,0,0,0
210000,2,2,1,0,1,0,0
355000,10,3,1,0,0,0,0
420000,9,3,1,0,0,0,0
183000,5,1,0,0,1,0,0
260000,6,6,0,0,1,0,0
196000,6,4,1,0,0,0,0
172000,2,0,1,0,0,0,0
212000,10,3,1,0,0,0,0
210000,3,3,1,0,0,0,0
227000,2,0,1,0,0,0,0
243000,6,0,1,0,0,0,0
382000,7,5,1,0,0,0,0
305000,10,4,1,0,0,0,0
191000,2,2,0,0,1,0,0
198000,2,0,0,0,1,0,0
648000,18,12,1,0,0,0,0
251000,4,0,1,0,0,0,0
250000,4,0,1,0,0,0,0
242000,17,0,1,0,0,0,0
270000,6,6,1,0,0,0,0
223000,8,2,1,0,0,0,0
150000,4,2,1,0,0,0,0
160000,5,1,1,0,0,0,0
220000,8,4,1,0,0,0,0
350000,15,1,1,0,0,0,0
195000,2,1,1,0,0,0,0
190000,3,0,1,0,0,0,0
182000,15,5,1,0,0,0,0
222000,7,0,1,0,0,0,0
250000,12,6,1,0,0,0,0
200000,8,8,1,0,0,0,0
192000,5,2,1,0,0,0,0
136000,3,2,0,1,0,0,0
222000,4,4,1,0,0,0,0
310000,15,3,0,1,0,0,0
620000,19,7,0,1,0,0,0
210000,4,1,0,0,0,1,0
173000,10,2,0,1,0,0,0
260000,15,2,0,1,0,0,0
189000,2,0,0,1,0,0,0
347000,18,3,1,0,0,0,0
193000,3,2,1,0,0,0,0
162000,5,2,1,0,0,0,0
193000,3,2,1,0,0,0,0
227000,6,0,1,0,0,0,0
167000,6,3,1,0,0,0,0
215000,3,1,1,0,0,0,0
300000,16,4,1,0,0,0,0
215000,9,2,1,0,0,0,0
350000,10,2,1,0,0,0,0
220000,4,2,0,0,1,0,0
855000,15,0,1,0,0,0,0
200000,9,3,1,0,0,0,0
150000,12,3,1,0,0,0,0
230000,5,5,0,1,0,0,0
350000,15,7,0,0,1,0,0
141000,5,2,0,1,0,0,0
180000,8,0,1,0,0,0,0
193000,3,3,0,1,0,0,0
333000,15,0,0,0,0,0,1
251000,5,5,0,1,0,0,0
336000,14,3,1,0,0,0,0
175000,1,0,1,0,0,0,0
128000,3,3,0,1,0,0,0
139000,4,1,1,0,0,0,0
161000,1,1,1,0,0,0,0
175000,1,1,1,0,0,0,0
340000,8,8,1,0,0,0,0
236000,6,2,0,0,1,0,0
89000,8,8,0,1,0,0,0
152000,5,1,1,0,0,0,0
245000,15,5,1,0,0,0,0
300000,4,1,1,0,0,0,0
368000,10,4,1,0,0,0,0
203000,3,0,1,0,0,0,0
300000,8,2,1,0,0,0,0
203000,1,1,1,0,0,0,0
149000,1,0,0,1,0,0,0
270000,22,1,0,1,0,0,0
315000,8,0,1,0,0,0,0
200000,25,3,1,0,0,0,0
140000,10,0,0,1,0,0,0
240000,5,5,0,1,0,0,0
267000,5,4,0,1,0,0,0
210000,3,0,1,0,0,0,0
215000,3,3,1,0,0,0,0
282000,3,0,1,0,0,0,0
142000,0,0,0,1,0,0,0
172000,8,2,0,1,0,0,0
183000,7,7,0,1,0,0,0
396000,8,8,0,0,1,0,0
240000,2,0,0,0,1,0,0
330000,11,3,0,1,0,0,0
359000,20,1,0,0,1,0,0
320000,9,5,0,0,1,0,0
571000,19,12,1,0,0,0,0
355000,10,0,0,1,0,0,0
240000,6,0,1,0,0,0,0
228000,15,4,1,0,0,0,0
279000,4,0,1,0,0,0,0
330000,14,2,0,1,0,0,0
207000,4,4,0,1,0,0,0
240000,4,0,0,1,0,0,0
241000,0,0,0,0,1,0,0
157000,4,1,1,0,0,0,0
165000,4,1,0,1,0,0,0
189000,4,4,1,0,0,0,0
300000,17,2,1,0,0,0,0
243000,4,0,1,0,0,0,0
174000,7,5,0,1,0,0,0
363000,5,0,0,1,0,0,0
187000,3,0,1,0,0,0,0
181000,1,0,1,0,0,0,0
205000,20,6,0,1,0,0,0
310000,7,7,0,1,0,0,0
225000,5,0,0,1,0,0,0
240000,2,0,1,0,0,0,0
240000,9,8,1,0,0,0,0
165000,1,0,0,0,1,0,0
140000,2,1,0,1,0,0,0
138000,0,0,0,0,0,0,1
370000,5,0,1,0,0,0,0
179000,6,2,0,1,0,0,0
214000,5,0,1,0,0,0,0
185000,13,3,1,0,0,0,0
116000,14,10,0,1,0,0,0
105000,8,3,0,1,0,0,0
88000,0,0,0,0,0,0,1
480000,20,1,1,0,0,0,0
240000,4,3,0,1,0,0,0
185000,7,1,1,0,0,0,0
160000,3,3,0,1,0,0,0
260000,7,7,1,0,0,0,0
132000,2,2,1,0,0,0,0
215000,8,5,0,1,0,0,0
240000,6,0,1,0,0,0,0
207000,4,4,1,0,0,0,0
102000,6,2,0,0,0,0,1
389000,6,3,1,0,0,0,0
600000,10,5,0,1,0,0,0
160000,6,4,0,1,0,0,0
287000,5,0,1,0,0,0,0
181000,2,0,0,1,0,0,0
275000,2,0,1,0,0,0,0
164000,3,3,0,1,0,0,0
125000,12,1,0,1,0,0,0
270000,15,1,0,1,0,0,0
352000,19,1,1,0,0,0,0
1100000,17,3,0,1,0,0,0
180000,3,0,0,0,0,0,1
326000,22,22,1,0,0,0,0
138000,4,1,1,0,0,0,0
162000,3,1,0,1,0,0,0
220000,7,1,0,1,0,0,0
202000,12,10,1,0,0,0,0
130000,5,1,0,0,0,0,1
155000,7,0,0,1,0,0,0
180000,7,0,1,0,0,0,0
310000,18,11,1,0,0,0,0
200000,12,12,1,0,0,0,0
530000,13,3,0,1,0,0,0
175000,5,1,1,0,0,0,0
254000,3,3,0,1,0,0,0
189000,3,0,0,1,0,0,0
170000,1,0,0,1,0,0,0
190000,2,0,1,0,0,0,0
205000,5,2,0,1,0,0,0
205000,5,2,0,1,0,0,0
365000,11,0,0,1,0,0,0
170000,5,2,0,1,0,0,0
182000,20,3,0,1,0,0,0
196000,6,1,1,0,0,0,0
300000,17,10,1,0,0,0,0
225000,6,0,1,0,0,0,0
200000,5,3,1,0,0,0,0
255000,7,0,0,1,0,0,0
162000,1,0,0,1,0,0,0
220000,4,2,1,0,0,0,0
190000,2,2,0,1,0,0,0
165000,4,1,0,1,0,0,0
220000,7,0,0,1,0,0,0
92000,1,1,1,0,0,0,0
193000,25,24,1,0,0,0,0
270000,4,2,0,1,0,0,0
209000,10,2,1,0,0,0,0
195000,4,2,0,0,1,0,0
248000,18,15,0,1,0,0,0
215000,3,3,1,0,0,0,0
202000,5,5,1,0,0,0,0
265000,4,4,1,0,0,0,0
320000,20,6,0,1,0,0,0
292000,19,14,1,0,0,0,0
221000,2,2,1,0,0,0,0
223000,5,3,1,0,0,0,0
220000,5,5,0,1,0,0,0
279000,1,0,0,1,0,0,0
253000,10,0,0,1,0,0,0
85000,3,2,0,1,0,0,0
163000,0,0,0,1,0,0,0
170000,0,0,0,1,0,0,0
173000,1,0,0,1,0,0,0
172000,0,0,0,1,0,0,0
113000,6,3,0,1,0,0,0
261000,4,0,1,0,0,0,0
127000,3,0,0,1,0,0,0
360000,12,1,0,1,0,0,0
212000,7,0,0,1,0,0,0
172000,0,0,0,1,0,0,0
207000,9,4,0,1,0,0,0
149000,0,0,0,1,0,0,0
342000,14,11,1,0,0,0,0
154000,1,0,0,1,0,0,0
195000,5,5,0,1,0,0,0
330000,20,11,0,1,0,0,0
135000,10,6,1,0,0,0,0
700000,20,12,1,0,0,0,0
370000,7,0,1,0,0,0,0
380000,10,0,1,0,0,0,0
181000,1,0,0,1,0,0,0
600000,20,1,0,0,1,0,0
250000,10,8,1,0,0,0,0
210000,5,1,0,1,0,0,0
193000,10,8,0,1,0,0,0
230000,11,0,1,0,0,0,0
250000,3,3,1,0,0,0,0
161000,2,0,0,1,0,0,0
300000,6,4,0,0,1,0,0
251000,0,0,0,0,1,0,0
186000,2,0,0,1,0,0,0
175000,0,0,1,0,0,0,0
239000,16,8,0,1,0,0,0
237000,15,4,1,0,0,0,0
246000,7,1,1,0,0,0,0
136000,2,0,0,1,0,0,0
380000,8,0,0,1,0,0,0
395000,8,0,0,1,0,0,0
400000,8,0,0,1,0,0,0
789000,15,2,0,1,0,0,0
550000,15,13,0,1,0,0,0
143000,1,1,1,0,0,0,0
190000,15,8,1,0,0,0,0
284000,8,1,1,0,0,0,0
141000,4,1,0,1,0,0,0
213000,13,5,1,0,0,0,0
253000,12,0,0,1,0,0,0
295000,7,0,1,0,0,0,0
157000,1,1,1,0,0,0,0
115000,3,3,1,0,0,0,0
146000,9,4,0,0,1,0,0
180000,0,0,1,0,0,0,0
458000,24,24,0,1,0,0,0
300000,10,2,1,0,0,0,0
184000,4,0,0,1,0,0,0
177000,1,1,0,1,0,0,0
191000,8,2,1,1,0,0,0
244000,11,8,1,0,0,0,0
165000,5,1,0,1,0,0,0
895000,14,5,0,1,0,0,0
273000,3,1,0,1,0,0,0
385000,12,3,1,0,0,0,0
170000,1,0,0,1,0,0,0
161000,0,0,0,1,0,0,0
171000,0,0,0,1,0,0,0
200000,6,3,1,0,0,0,0
194000,5,5,1,0,0,0,0
182000,6,4,0,1,0,0,0
385000,6,3,0,1,0,0,0
161000,1,0,0,1,0,0,0
284000,4,4,0,1,0,0,0
205000,10,5,0,1,0,0,0
166000,3,2,1,0,0,0,0
302000,9,1,0,1,0,0,0
116000,5,3,0,0,0,1,0
270000,20,15,0,1,0,0,0
138000,3,1,0,1,0,0,0
318000,7,7,1,0,0,0,0
165000,3,0,0,0,0,1,0
197000,15,9,1,0,0,0,0
175000,2,1,1,0,0,0,0
396000,15,13,1,0,0,0,0
185000,15,9,0,1,0,0,0
204000,3,3,0,1,0,0,0
168000,2,2,0,1,0,0,0
310000,21,2,0,0,0,1,0
400000,20,5,0,1,0,0,0
200000,3,3,0,1,0,0,0
393000,8,0,1,0,0,0,0
121000,0,0,0,1,0,0,0
182000,3,0,1,0,0,0,0
349000,20,17,0,0,0,1,0
153000,5,3,1,0,0,0,0
340000,13,13,0,0,1,0,0
175000,4,2,1,0,0,0,0
203000,7,7,0,1,0,0,0
159000,2,2,1,0,0,0,0
366000,14,5,0,1,0,0,0
178000,8,1,1,0,0,0,0
258000,2,2,0,1,0,0,0
165000,3,1,0,1,0,0,0
422000,12,12,0,1,0,0,0
157000,12,1,0,1,0,0,0
345000,7,3,1,0,0,0,0
209000,5,5,1,0,0,0,0
264000,11,3,0,1,0,0,0
297000,7,7,0,1,0,0,0
224000,7,4,1,0,0,0,0
246000,3,0,1,0,0,0,0
204000,10,6,1,0,0,0,0
231000,25,14,1,0,0,0,0
202000,13,5,1,0,0,0,0
217000,10,5,0,1,0,0,0
147000,3,2,0,1,0,0,0
143000,5,1,0,1,0,0,0
233000,9,7,1,0,0,0,0
128000,5,1,1,0,0,0,0
214000,6,0,0,1,0,0,0
237000,9,0,0,1,0,0,0
167000,14,2,0,0,0,0,1
495000,10,6,1,0,0,0,0
198000,5,5,0,1,0,0,0
208000,4,4,1,0,0,0,0
167000,3,3,1,0,0,0,0
254000,12,5,1,0,0,0,0
189000,0,0,0,1,0,0,0
192000,3,3,1,0,0,0,0
187000,7,7,1,0,0,0,0
173000,5,2,0,1,0,0,0
190000,0,0,0,1,0,0,0
270000,22,17,1,0,0,0,0
252000,10,1,0,0,0,0,1
128000,0,0,0,1,0,0,0
385000,20,8,0,1,0,0,0
301000,14,14,1,0,0,0,0
300000,17,12,0,1,0,0,0
359000,15,5,0,1,0,0,0
320000,16,9,1,0,0,0,0
175000,6,3,1,0,0,0,0
166000,4,1,0,1,0,0,0
175000,3,3,1,0,0,0,0
158000,2,2,1,0,0,0,0
255000,6,0,0,1,0,0,0
550000,15,4,1,0,0,0,0
230000,0,0,0,1,0,0,0
165000,12,4,1,0,0,0,0
202000,4,4,1,0,0,0,0
180000,4,2,1,0,0,0,0
285000,10,7,0,1,0,0,0
181000,4,0,1,0,0,0,0
450000,20,0,1,0,0,0,0
201000,8,7,0,1,0,0,0
220000,10,3,0,1,0,0,0
350000,19,5,1,0,0,0,0
146000,2,1,1,0,0,0,0
199000,7,7,0,1,0,0,0
225000,14,8,1,0,0,0,0
209000,8,4,1,0,0,0,0
263000,7,7,0,1,0,0,0
215000,9,1,0,1,0,0,0
200000,2,2,0,1,0,0,0
208000,16,15,1,0,0,0,0
180000,6,6,1,0,0,0,0
221000,15,2,0,1,0,0,0
174000,13,2,1,0,0,0,0
250000,8,6,1,0,0,0,0
179000,9,4,0,1,0,0,0
180000,6,0,1,0,0,0,0
175000,3,0,1,0,0,0,0
186000,7,1,0,0,1,0,0
297000,5,3,0,1,0,0,0
173000,1,1,1,0,0,0,0
253000,5,5,0,0,1,0,0
175000,8,7,0,1,0,0,0
154000,0,0,0,1,0,0,0
153000,5,0,1,0,0,0,0
198000,1,1,0,1,0,0,0
275000,20,0,0,0,0,1,0
185000,4,0,1,0,0,0,0
599000,12,1,0,0,0,1,0
180000,6,2,1,0,0,0,0
175000,1,1,0,1,0,0,0
180000,5,1,0,1,0,0,0
193000,1,1,0,1,0,0,0
257000,15,9,0,1,0,0,0
177000,3,0,1,0,0,0,0
176000,3,3,0,1,0,0,0
210000,6,6,0,1,0,0,0
105000,2,2,0,1,0,0,0
157000,0,0,0,1,0,0,0
180000,3,3,0,1,0,0,0
242000,2,0,1,0,0,0,0
203000,12,0,1,0,0,0,0
195000,9,2,1,0,0,0,0
344000,20,20,0,1,0,0,0
434000,13,0,0,1,0,0,0
356000,15,6,1,0,0,0,0
150000,1,1,0,1,0,0,0
157000,1,0,0,1,0,0,0
211000,5,5,0,1,0,0,0
159000,1,1,0,1,0,0,0
305000,6,0,1,0,0,0,0
170000,5,2,0,1,0,0,0
227000,5,5,0,1,0,0,0
180000,0,0,1,0,0,0,0
98000,5,2,1,0,0,0,0
280000,12,4,1,0,0,0,0
133000,4,2,0,1,0,0,0
193000,25,10,1,0,0,0,0
115000,2,1,0,1,0,0,0
153000,5,1,1,0,0,0,0
293000,16,8,1,0,0,0,0
330000,15,15,1,0,0,0,0
223000,5,1,0,1,0,0,0
205000,5,1,1,0,0,0,0
213000,10,2,0,1,0,0,0
265000,20,1,1,0,0,0,0
144000,0,0,0,1,0,0,0
165000,0,0,1,0,0,0,0
222000,10,2,0,0,1,0,0
150000,5,2,0,1,0,0,0
238000,12,4,1,0,0,0,0
154000,4,4,0,1,0,0,0
430000,10,2,1,0,0,0,0
179000,25,1,0,1,0,0,0
154000,6,2,1,0,0,0,0
200000,12,1,1,0,0,0,0
171000,0,0,0,1,0,0,0
150000,2,0,0,1,0,0,0
310000,6,2,1,0,0,0,0
255000,5,2,1,0,0,0,0
326000,8,8,0,1,0,0,0
169000,7,2,1,0,0,0,0
176000,6,6,1,0,0,0,0
160000,0,0,0,1,0,0,0
174000,0,0,0,1,0,0,0
225000,12,3,0,1,0,0,0
215000,10,1,1,0,0,0,0
215000,16,2,1,0,0,0,0
198000,4,3,1,0,0,0,0
235000,4,0,1,0,0,0,0
284000,12,0,1,0,0,0,0
158000,9,3,1,0,0,0,0
191000,10,4,1,0,0,0,0
185000,0,0,0,1,0,0,0
214000,3,0,0,1,0,0,0
174000,1,1,0,1,0,0,0
285000,8,4,0,1,0,0,0
349000,25,5,0,0,0,0,1
352000,15,1,0,1,0,0,0
180000,0,0,0,1,0,0,0
210000,21,14,1,0,0,0,0
216000,5,1,0,0,0,1,0
396000,27,27,1,0,0,0,0
505000,13,13,1,0,0,0,0
234000,4,2,1,0,0,0,0
209000,2,2,0,0,1,0,0
209000,5,5,1,0,0,0,0
199000,13,5,1,0,0,0,0
200000,6,4,0,1,0,0,0
170000,20,4,0,0,0,0,1
130000,5,4,0,1,0,0,0
167000,25,3,1,0,0,0,0
199000,6,1,1,0,0,0,0
350000,19,16,0,1,0,0,0
243000,15,2,0,1,0,0,0
225000,6,4,1,0,0,0,0
160000,1,0,0,1,0,0,0
325000,28,28,1,0,0,0,0
263000,6,6,0,1,0,0,0
212000,20,12,0,1,0,0,0
248000,15,5,1,0,0,0,0
197000,2,2,0,1,0,0,0
130000,15,1,0,1,0,0,0
228000,1,1,0,1,0,0,0
206000,6,1,1,0,0,0,0
180000,8,8,1,0,0,0,0
506000,25,0,0,0,0,0,1
387000,18,4,0,1,0,0,0
225000,4,2,1,0,0,0,0
185000,10,2,1,0,0,0,0
170000,12,5,0,0,1,0,0
230000,15,5,1,0,0,0,0
233000,14,14,0,1,0,0,0
204000,6,6,0,1,0,0,0
220000,10,10,1,0,0,0,0
177000,0,0,0,1,0,0,0
247000,7,7,1,0,0,0,0
300000,7,7,1,0,0,0,0
234000,8,5,0,0,1,0,0
220000,8,8,1,0,0,0,0
239000,20,4,1,0,0,0,0
233000,9,6,1,0,0,0,0
157000,0,0,1,0,0,0,0
173000,0,0,0,1,0,0,0
220000,20,10,1,0,0,0,0
167000,3,3,0,1,0,0,0
394000,7,0,1,0,0,0,0
315000,7,3,1,0,0,0,0
285000,18,10,1,0,0,0,0
307000,18,14,0,1,0,0,0
194000,3,3,1,0,0,0,0
165000,3,1,1,0,0,0,0
212000,7,1,1,0,0,0,0
210000,9,2,1,0,0,0,0
359000,12,0,1,0,0,0,0
336000,12,1,1,0,0,0,0
303000,10,2,1,0,0,0,0
150000,0,0,0,1,0,0,0
162000,4,1,1,0,0,0,0
200000,5,2,0,1,0,0,0
220000,20,0,0,0,0,0,1
153000,1,0,0,1,0,0,0
170000,4,2,1,0,0,0,0
479000,25,5,0,1,0,0,0
286000,13,13,0,1,0,0,0
300000,10,2,1,0,0,0,0
260000,40,20,0,1,0,0,0
205000,15,5,1,0,0,0,0
700000,15,2,0,1,0,0,0
332000,8,0,1,0,0,0,0
134000,0,0,0,1,0,0,0
210000,12,3,0,1,0,0,0
475000,11,2,0,1,0,0,0
281000,20,6,0,1,0,0,0
199000,0,0,0,1,0,0,0
165000,3,3,0,1,0,0,0
207000,5,0,1,0,0,0,0
110000,1,0,0,1,0,0,0
157000,0,0,0,1,0,0,0
282000,3,0,1,0,0,0,0
340000,15,13,1,0,0,0,0
333000,14,4,0,1,0,0,0
177000,0,0,1,0,0,0,0
155000,5,1,1,0,0,0,0
178000,4,0,1,0,0,0,0
360000,9,9,1,0,0,0,0
130000,3,3,0,1,0,0,0
265000,19,2,1,0,0,0,0
220000,10,4,0,1,0,0,0
166000,10,4,1,0,0,0,0
381000,22,17,0,1,0,0,0
168000,3,0,1,0,0,0,0
275000,25,1,1,0,0,0,0
365000,11,3,1,0,0,0,0
288000,18,0,1,0,0,0,0
310000,6,0,1,0,0,0,0
150000,3,0,0,1,0,0,0
275000,0,0,0,0,1,0,0
345000,8,7,0,1,0,0,0
86000,2,1,0,1,0,0,0
199000,14,7,0,1,0,0,0
191000,10,10,0,1,0,0,0
157000,0,0,1,0,0,0,0
114000,1,1,0,1,0,0,0
165000,2,1,0,1,0,0,0
155000,3,1,1,0,0,0,0
330000,10,2,1,0,0,0,0
198000,16,12,1,0,0,0,0
168000,15,14,1,0,0,0,0
400000,25,2,1,0,0,0,0
156000,5,2,0,1,0,0,0
158000,0,0,0,1,0,0,0
234000,12,1,0,1,0,0,0
229000,20,2,0,1,0,0,0
296000,25,2,0,0,0,1,0
212000,5,0,1,0,0,0,0
235000,17,17,0,1,0,0,0
235000,20,15,1,0,0,0,0
190000,4,4,1,0,0,0,0
158000,1,1,0,1,0,0,0
201000,4,4,0,1,0,0,0
135000,5,1,0,1,0,0,0
159000,7,2,0,1,0,0,0
496000,10,0,0,1,0,0,0
70000,5,5,1,0,0,0,0
201000,2,1,0,1,0,0,0
194000,5,5,0,0,1,0,0
158000,5,2,0,1,0,0,0
250000,7,7,0,1,0,0,0
160000,4,1,0,1,0,0,0
192000,6,6,0,0,1,0,0
350000,15,10,0,0,1,0,0
98000,1,0,0,1,0,0,0
139000,0,0,0,1,0,0,0
306000,13,3,1,0,0,0,0
357000,10,6,0,0,1,0,0
270000,9,0,0,1,0,0,0
168000,5,5,1,0,0,0,0
240000,20,1,1,0,0,0,0
170000,2,2,1,0,0,0,0
250000,8,4,1,0,0,0,0
194000,7,1,1,0,0,0,0
152000,1,0,0,1,0,0,0
250000,12,3,1,0,0,0,0
280000,22,2,1,0,0,0,0
150000,4,0,1,0,0,0,0
140000,0,0,0,1,0,0,0
268000,10,6,0,1,0,0,0
175000,14,2,0,1,0,0,0
280000,6,3,0,1,0,0,0
245000,2,0,1,0,0,0,0
135000,0,0,1,0,0,0,0
235000,6,1,0,1,0,0,0
168000,4,1,1,0,0,0,0
132000,1,1,1,0,0,0,0
412000,10,1,0,1,0,0,0
240000,6,0,0,1,0,0,0
180000,1,0,1,0,0,0,0
169000,1,1,0,1,0,0,0
162000,2,1,0,1,0,0,0
150000,9,7,0,1,0,0,0
160000,9,3,1,0,0,0,0
265000,10,1,0,1,0,0,0
363000,10,0,0,1,0,0,0
205000,4,0,0,1,0,0,0
323000,5,3,0,1,0,0,0
91000,5,2,0,1,0,0,0
510000,22,16,0,1,0,0,0
250000,4,4,0,1,0,0,0
168000,3,3,0,1,0,0,0
122000,8,4,0,1,0,0,0
363000,15,13,1,0,0,0,0
168000,0,0,0,1,0,0,0
395000,17,4,1,0,0,0,0
165000,0,0,0,1,0,0,0
490000,22,9,1,0,0,0,0
606000,12,9,0,1,0,0,0
258000,12,8,1,0,0,0,0
214000,0,0,1,0,0,0,0
240000,15,4,1,0,0,0,0
367000,6,0,0,1,0,0,0
280000,10,3,0,1,0,0,0
231000,13,13,0,1,0,0,0
328000,13,5,0,0,0,1,0
164000,2,2,0,1,0,0,0
230000,1,1,0,0,1,0,0
164000,5,0,1,0,0,0,0
172000,2,0,0,1,0,0,0
285000,12,6,0,1,0,0,0
225000,1,1,1,0,0,0,0
185000,13,13,1,0,0,0,0
586000,12,0,0,0,0,0,1
200000,4,2,1,0,0,0,0
224000,8,0,0,1,0,0,0
241000,23,21,0,1,0,0,0
157000,0,0,1,0,0,0,0
174000,2,0,0,1,0,0,0
225000,17,6,1,0,0,0,0
144000,12,5,0,1,0,0,0
204000,6,6,0,0,1,0,0
370000,10,4,1,0,0,0,0
150000,8,2,1,0,0,0,0
130000,30,3,0,1,0,0,0
421000,7,0,1,0,0,0,0
264000,14,14,1,0,0,0,0
148000,0,0,0,1,0,0,0
233000,14,13,0,1,0,0,0
232000,19,5,0,1,0,0,0
485000,13,1,0,1,0,0,0
160000,9,2,0,1,0,0,0
170000,1,0,1,0,0,0,0
469000,6,0,1,0,0,0,0
173000,4,2,1,0,0,0,0
446000,9,0,0,1,0,0,0
178000,7,1,0,1,0,0,0
125000,0,0,1,0,0,0,0
200000,8,2,0,1,0,0,0
370000,14,1,1,0,0,0,0
207000,6,2,0,1,0,0,0
169000,3,0,1,0,0,0,0
154000,30,6,0,1,0,0,0
230000,11,6,1,0,0,0,0
184000,5,2,1,0,0,0,0
255000,5,1,0,1,0,0,0
227000,15,1,0,1,0,0,0
225000,3,3,0,1,0,0,0
191000,0,0,0,1,0,0,0
167000,7,3,0,1,0,0,0
110000,3,2,0,1,0,0,0
264000,8,0,0,1,0,0,0
218000,3,0,0,1,0,0,0
187000,4,1,0,0,1,0,0
401000,3,3,1,0,0,0,0
200000,5,2,1,0,0,0,0
422000,15,0,1,0,0,0,0
215000,2,0,1,0,0,0,0
307000,15,1,1,0,0,0,0
292000,2,0,0,1,0,0,0
155000,30,15,0,1,0,0,0
156000,2,2,0,0,1,0,0
180000,10,1,0,1,0,0,0
180000,4,0,1,0,0,0,0
155000,1,1,0,1,0,0,0
184000,0,0,1,0,0,0,0
370000,5,0,1,0,0,0,0
170000,0,0,0,1,0,0,0
210000,3,0,0,1,0,0,0
135000,4,1,0,1,0,0,0
200000,8,8,1,0,0,0,0
344000,20,20,0,1,0,0,0
175000,1,0,1,0,0,0,0
219000,12,0,0,1,0,0,0
200000,1,0,0,1,0,0,0
174000,9,2,1,0,0,0,0
120000,2,2,1,0,0,0,0
385000,12,12,1,0,0,0,0
325000,15,2,0,0,1,0,0
700000,29,5,1,0,0,0,0
150000,1,1,0,1,0,0,0
214000,3,3,1,0,0,0,0
154000,2,0,0,1,0,0,0
176000,0,0,0,1,0,0,0
173000,1,0,1,0,0,0,0
260000,5,0,1,0,0,0,0
176000,1,1,0,1,0,0,0
220000,5,4,1,0,0,0,0
216000,3,3,0,1,0,0,0
170000,4,0,0,1,0,0,0
170000,2,2,1,0,0,0,0
220000,15,15,1,0,0,0,0
147000,0,0,0,1,0,0,0
150000,0,0,0,1,0,0,0
415000,36,15,0,1,0,0,0
156000,0,0,0,1,0,0,0
150000,10,7,0,1,0,0,0
196000,12,3,1,0,0,0,0
201000,0,0,0,1,0,0,0
218000,4,0,0,1,0,0,0
343000,24,7,0,1,0,0,0
208000,10,1,1,0,0,0,0
159000,2,2,1,0,0,0,0
410000,7,1,0,1,0,0,0
165000,2,0,0,1,0,0,0
190000,1,0,1,0,0,0,0
140000,0,0,1,0,0,0,0
197000,20,14,0,1,0,0,0
205000,4,1,1,0,0,0,0
250000,20,3,0,1,0,0,0
216000,15,8,0,1,0,0,0
310000,15,5,1,0,0,0,0
116000,0,0,0,1,0,0,0
137000,2,0,1,0,0,0,0
248000,15,7,1,0,0,0,0
160000,3,1,0,1,0,0,0
172000,0,0,1,0,0,0,0
160000,0,0,0,1,0,0,0
326000,7,0,0,0,1,0,0
153000,1,0,0,1,0,0,0
135000,5,5,1,0,0,0,0
170000,5,0,0,1,0,0,0
283000,4,4,0,1,0,0,0
206000,6,1,1,0,0,0,0
279000,19,1,1,0,0,0,0
258000,4,2,1,0,0,0,0
170000,4,1,0,1,0,0,0
150000,4,1,1,0,0,0,0
199000,9,7,1,0,0,0,0
120000,0,0,1,0,0,0,0
485000,14,8,1,0,0,0,0
182000,5,2,1,0,0,0,0
205000,4,4,0,1,0,0,0
370000,9,4,1,0,0,0,0
206000,0,0,1,0,0,0,0
200000,12,2,1,0,0,0,0
618000,15,7,1,0,0,0,0
140000,5,2,1,0,0,0,0
178000,6,3,1,0,0,0,0
181000,1,0,0,1,0,0,0
200000,10,5,1,0,0,0,0
235000,2,0,1,0,0,0,0
395000,6,0,1,0,0,0,0
140000,6,2,1,0,0,0,0
80000,1,1,0,1,0,0,0
220000,13,10,1,0,0,0,0
388000,25,5,0,0,0,1,0
230000,10,1,0,1,0,0,0
194000,4,0,1,0,0,0,0
405000,14,0,1,0,0,0,0
234000,3,3,1,0,0,0,0
242000,4,0,0,0,0,0,1
200000,15,2,1,0,0,0,0
121000,5,0,1,0,0,0,0
230000,7,0,0,1,0,0,0
272000,5,2,0,1,0,0,0
160000,1,1,0,1,0,0,0
266000,4,0,0,1,0,0,0
160000,2,2,0,1,0,0,0
181000,4,4,0,1,0,0,0
396000,17,0,1,0,0,0,0
191000,0,0,1,0,0,0,0
294000,20,16,1,0,0,0,0
149000,6,6,0,1,0,0,0
336000,20,15,1,0,0,0,0
156000,2,2,0,1,0,0,0
215000,9,3,1,0,0,0,0
247000,12,2,0,1,0,0,0
217000,15,3,0,1,0,0,0
154000,2,2,1,0,0,0,0
203000,7,4,1,0,0,0,0
200000,5,5,0,1,0,0,0
170000,20,20,1,0,0,0,0
180000,0,0,1,0,0,0,0
158000,0,0,0,1,0,0,0
141000,7,5,0,0,0,1,0
344000,6,0,0,0,1,0,0
146000,8,4,1,0,0,0,0
160000,5,2,1,0,0,0,0
183000,1,1,0,1,0,0,0
170000,1,1,0,1,0,0,0
350000,15,10,1,0,0,0,0
270000,3,3,1,0,0,0,0
180000,10,0,0,0,0,0,1
220000,10,10,1,0,0,0,0
500000,20,15,1,0,0,0,0
182000,2,0,0,1,0,0,0
200000,9,4,1,0,0,0,0
230000,4,0,1,0,0,0,0
152000,0,0,0,1,0,0,0
270000,8,0,0,1,0,0,0
382000,8,0,0,1,0,0,0
163000,0,0,0,1,0,0,0
221000,10,1,1,0,0,0,0
148000,1,1,1,0,0,0,0
320000,20,2,0,1,0,0,0
619000,20,9,0,0,1,0,0
153000,3,0,1,0,0,0,0
210000,3,0,1,0,0,0,0
460000,10,0,1,0,0,0,0
155000,0,0,1,0,0,0,0
390000,20,12,1,0,0,0,0
160000,5,2,1,0,0,0,0
229000,16,16,0,1,0,0,0
176000,1,1,1,0,0,0,0
135000,0,0,0,1,0,0,0
156000,1,0,0,1,0,0,0
189000,3,2,1,0,0,0,0
229000,15,4,1,0,0,0,0
280000,4,0,1,0,0,0,0
163000,1,0,1,0,0,0,0
330000,7,3,1,0,0,0,0
500000,13,1,0,0,1,0,0
114000,12,3,1,0,0,0,0
169000,0,0,0,1,0,0,0
171000,7,4,1,0,0,0,0
165000,3,2,1,0,0,0,0
152000,0,0,0,1,0,0,0
155000,2,2,0,0,0,1,0
167000,4,0,1,0,0,0,0
147000,0,0,1,0,0,0,0
250000,22,15,1,0,0,0,0
240000,8,1,1,0,0,0,0
180000,8,2,0,1,0,0,0
300000,7,3,1,0,0,0,0
218000,14,5,1,0,0,0,0
215000,4,2,1,0,0,0,0
215000,2,2,0,1,0,0,0
460000,16,8,1,0,0,0,0
152000,1,0,1,0,0,0,0
270000,5,2,1,0,0,0,0
175000,5,5,1,0,0,0,0
153000,1,1,0,1,0,0,0
210000,6,4,1,0,0,0,0
384000,11,9,0,1,0,0,0
463000,12,1,0,1,0,0,0
183000,5,0,1,0,0,0,0
185000,3,1,1,0,0,0,0
165000,1,0,1,0,0,0,0
382000,8,0,0,1,0,0,0
193000,8,0,0,1,0,0,0
189000,30,3,1,0,0,0,0
254000,7,7,0,1,0,0,0
258000,17,0,0,1,0,0,0
270000,6,0,1,0,0,0,0
135000,4,0,1,0,0,0,0
380000,9,0,1,0,0,0,0
310000,8,6,0,1,0,0,0
153000,0,0,0,1,0,0,0
320000,20,16,1,0,0,0,0
171000,5,3,0,1,0,0,0
195000,3,3,1,0,0,0,0
173000,2,1,0,1,0,0,0
151000,19,6,1,0,0,0,0
138000,0,0,1,0,0,0,0
172000,10,1,0,0,0,0,1
400000,15,0,0,1,0,0,0
165000,6,4,1,0,0,0,0
142000,0,0,1,0,0,0,0
275000,4,0,1,0,0,0,0
145000,2,1,1,0,0,0,0
152000,0,0,1,0,0,0,0
196000,0,0,0,1,0,0,0
380000,5,5,0,0,1,0,0
209000,11,3,0,1,0,0,0
235000,19,3,1,0,0,0,0
300000,9,5,1,0,0,0,0
156000,0,0,1,0,0,0,0
181000,10,1,0,1,0,0,0
160000,1,1,0,1,0,0,0
235000,8,3,0,1,0,0,0
405000,10,0,1,0,0,0,0
339000,7,7,0,1,0,0,0
185000,9,4,1,0,0,0,0
233000,18,10,0,1,0,0,0
233000,10,4,0,1,0,0,0
183000,9,7,0,1,0,0,0
1050000,15,3,0,1,0,0,0
130000,5,0,1,0,0,0,0
240000,6,4,1,0,0,0,0
192000,12,2,1,0,0,0,0
161000,1,0,0,1,0,0,0
185000,1,1,0,1,0,0,0
131000,2,2,0,1,0,0,0
250000,8,4,1,0,0,0,0
231000,14,0,0,1,0,0,0
278000,5,0,1,0,0,0,0
168000,0,0,0,1,0,0,0
365000,10,0,1,0,0,0,0
220000,7,5,0,1,0,0,0
200000,10,10,0,1,0,0,0
162000,1,1,0,1,0,0,0
180000,13,10,0,1,0,0,0
192000,2,0,1,0,0,0,0
200000,2,2,0,1,0,0,0
128000,5,1,1,0,0,0,0
158000,0,0,0,1,0,0,0
150000,4,2,0,1,0,0,0
262000,4,4,1,0,0,0,0
193000,4,1,1,0,0,0,0
220000,7,4,0,1,0,0,0
295000,15,1,0,1,0,0,0
145000,0,0,1,0,0,0,0
179000,3,0,1,0,0,0,0
435000,10,0,1,0,0,0,0
294000,15,7,0,0,0,0,1
170000,7,5,1,0,0,0,0
399000,30,0,0,1,0,0,0
213000,10,10,0,1,0,0,0
238000,10,10,0,1,0,0,0
150000,0,0,0,0,0,0,1
181000,7,2,0,1,0,0,0
138000,14,0,0,1,0,0,0
450000,15,4,1,0,0,0,0
213000,9,7,0,1,0,0,0
199000,9,7,0,1,0,0,0
292000,15,0,0,0,1,0,0
196000,5,0,1,0,0,0,0
270000,5,4,1,0,0,0,0
132000,13,7,0,1,0,0,0
226000,14,4,1,0,0,0,0
150000,3,1,0,1,0,0,0
174000,5,1,1,0,0,0,0
147000,3,0,1,0,0,0,0
248000,15,8,0,1,0,0,0
130000,8,3,0,1,0,0,0
89000,12,12,0,1,0,0,0
142000,12,6,1,0,0,0,0
162000,1,1,0,1,0,0,0
216000,6,6,0,1,0,0,0
134000,0,0,0,1,0,0,0
258000,14,3,1,0,0,0,0
270000,7,0,1,0,0,0,0
172000,0,0,0,1,0,0,0
218000,6,4,0,0,1,0,0
331000,15,1,0,0,1,0,0
286000,20,5,1,0,0,0,0
590000,20,0,1,0,0,0,0
185000,4,1,1,0,0,0,0
300000,10,0,1,0,0,0,0
168000,6,0,1,0,0,0,0
200000,3,3,0,1,0,0,0
240000,11,2,1,0,0,0,0
212000,6,6,1,0,0,0,0
1240000,29,27,0,1,0,0,0
330000,13,5,0,1,0,0,0
152000,1,1,1,0,0,0,0
334000,12,6,0,1,0,0,0
193000,3,3,1,0,0,0,0
206000,7,0,0,1,0,0,0
377000,15,0,0,1,0,0,0
312000,20,10,1,0,0,0,0
90000,10,7,1,0,0,0,0
484000,15,0,0,1,0,0,0
190000,10,3,0,1,0,0,0
196000,13,9,1,0,0,0,0
245000,20,20,1,0,0,0,0
179000,0,0,1,0,0,0,0
215000,10,10,0,1,0,0,0
170000,10,4,1,0,0,0,0
163000,5,0,1,0,0,0,0
200000,3,0,0,1,0,0,0
596000,11,10,0,1,0,0,0
120000,6,6,1,0,0,0,0
110000,5,5,0,1,0,0,0
208000,5,0,0,1,0,0,0
120000,1,1,0,1,0,0,0
268000,25,1,0,1,0,0,0
395000,13,8,1,0,0,0,0
164000,8,2,0,1,0,0,0
380000,11,8,0,1,0,0,0
223000,5,0,0,1,0,0,0
321000,15,0,0,1,0,0,0
138000,0,0,0,1,0,0,0
185000,0,0,0,1,0,0,0
416000,5,0,1,0,0,0,0
149000,3,3,1,0,0,0,0
233000,2,0,1,0,0,0,0
150000,3,0,1,0,0,0,0
345000,5,0,1,0,0,0,0
175000,6,5,1,0,0,0,0
417000,15,1,0,1,0,0,0
284000,6,6,0,1,0,0,0
242000,3,3,0,1,0,0,0
147000,1,0,0,1,0,0,0
184000,3,3,0,1,0,0,0
220000,3,3,0,1,0,0,0
512000,18,9,0,0,1,0,0
400000,15,6,1,0,0,0,0
190000,7,7,1,0,0,0,0
169000,6,4,0,1,0,0,0
175000,4,1,1,0,0,0,0
383000,3,0,1,0,0,0,0
427000,20,17,0,1,0,0,0
142000,4,4,0,1,0,0,0
397000,9,4,0,1,0,0,0
229000,1,1,0,1,0,0,0
210000,7,2,1,0,0,0,0
182000,6,4,1,0,0,0,0
227000,8,2,1,0,0,0,0
165000,0,0,0,1,0,0,0
152000,0,0,0,1,0,0,0
207000,12,6,0,1,0,0,0
199000,0,0,0,1,0,0,0
172000,3,0,0,1,0,0,0
248000,7,5,1,0,0,0,0
159000,10,3,1,0,0,0,0
343000,8,0,1,0,0,0,0
323000,8,8,0,1,0,0,0
449000,20,4,1,0,0,0,0
155000,11,2,0,1,0,0,0
307000,17,12,0,1,0,0,0
317000,3,2,0,1,0,0,0
136000,1,1,0,1,0,0,0
161000,14,3,1,0,0,0,0
204000,8,6,1,0,0,0,0
155000,5,5,1,0,0,0,0
104000,3,1,1,0,0,0,0
206000,2,2,0,1,0,0,0
790000,13,13,0,1,0,0,0
290000,17,8,0,1,0,0,0
270000,9,7,1,0,0,0,0
215000,0,0,0,0,1,0,0
415000,9,1,1,0,0,0,0
172000,6,6,0,1,0,0,0
259000,5,1,1,0,0,0,0
187000,5,0,1,0,0,0,0
437000,5,5,1,0,0,0,0
137000,0,0,0,1,0,0,0
510000,11,5,1,0,0,0,0
265000,6,1,0,1,0,0,0
341000,8,4,0,1,0,0,0
86000,3,3,0,1,0,0,0
200000,14,7,0,1,0,0,0
165000,2,0,1,0,0,0,0
134000,4,3,1,0,0,0,0
165000,4,1,0,1,0,0,0
606000,10,3,1,0,0,0,0
258000,7,0,1,0,0,0,0
210000,3,3,0,1,0,0,0
141000,20,2,1,0,0,0,0
215000,0,0,0,0,1,0,0
130000,0,0,0,1,0,0,0
145000,1,1,0,1,0,0,0
152000,5,0,1,0,0,0,0
181000,2,0,0,1,0,0,0
175000,2,0,0,1,0,0,0
380000,10,0,1,0,0,0,0
210000,8,8,0,1,0,0,0
230000,6,5,1,0,0,0,0
230000,5,1,0,1,0,0,0
280000,10,8,1,0,0,0,0
106000,0,0,0,1,0,0,0
273000,6,0,1,0,0,0,0
381000,4,3,1,0,0,0,0
224000,7,5,1,0,0,0,0
200000,5,5,0,1,0,0,0
292000,15,2,0,0,1,0,0
400000,20,3,1,0,0,0,0
202000,4,0,1,0,0,0,0
303000,5,0,1,0,0,0,0
222000,10,6,0,0,1,0,0
226000,4,1,1,0,0,0,0
249000,2,0,0,1,0,0,0
220000,9,1,1,0,0,0,0
175000,0,0,0,1,0,0,0
110000,8,8,0,1,0,0,0
165000,1,0,0,1,0,0,0
190000,8,0,1,0,0,0,0
226000,16,4,1,0,0,0,0
223000,8,0,1,0,0,0,0
202000,15,7,1,0,0,0,0
508000,20,0,0,1,0,0,0
187000,4,0,1,0,0,0,0
189000,0,0,0,1,0,0,0
97000,5,4,1,0,0,0,0
254000,15,5,0,1,0,0,0
514000,9,3,0,1,0,0,0
608000,19,8,1,0,0,0,0
244000,4,4,1,0,0,0,0
220000,2,1,0,0,1,0,0
295000,16,8,0,1,0,0,0
304000,15,2,0,0,0,0,1
181000,5,2,0,1,0,0,0
180000,3,3,0,1,0,0,0
160000,7,5,1,0,0,0,0
280000,8,1,1,0,0,0,0
650000,15,15,0,1,0,0,0
193000,6,4,1,0,0,0,0
145000,4,1,1,0,0,0,0
470000,4,0,0,0,1,0,0
288000,2,0,0,1,0,0,0
176000,0,0,1,0,0,0,0
202000,5,4,0,1,0,0,0
335000,5,2,1,0,0,0,0
391000,20,0,0,1,0,0,0
272000,16,8,1,0,0,0,0
132000,4,2,0,1,0,0,0
182000,7,7,0,1,0,0,0
240000,2,2,0,1,0,0,0
502000,9,4,1,0,0,0,0
292000,10,4,0,1,0,0,0
138000,2,0,1,0,0,0,0
195000,1,0,1,0,0,0,0
454000,20,3,0,0,0,1,0
180000,18,3,1,0,0,0,0
119000,1,1,0,1,0,0,0
563000,20,1,0,1,0,0,0
240000,20,3,1,0,0,0,0
220000,15,3,1,0,0,0,0
240000,10,1,0,0,1,0,0
300000,7,7,1,0,0,0,0
156000,6,6,1,0,0,0,0
260000,22,15,0,1,0,0,0
337000,14,1,0,0,1,0,0
263000,6,2,0,1,0,0,0
133000,1,0,1,0,0,0,0
205000,6,0,1,0,0,0,0
305000,14,1,0,1,0,0,0
221000,12,12,1,0,0,0,0
182000,4,0,1,0,0,0,0
195000,6,0,0,1,0,0,0
140000,6,0,1,0,0,0,0
240000,8,3,1,0,0,0,0
376000,15,6,0,0,1,0,0
266000,16,7,0,1,0,0,0
330000,24,15,0,1,0,0,0
115000,7,5,1,0,0,0,0
204000,16,5,0,0,0,0,1
194000,2,2,1,0,0,0,0
450000,7,0,0,1,0,0,0
249000,13,12,1,0,0,0,0
176000,3,0,1,0,0,0,0
178000,3,0,0,1,0,0,0
170000,3,0,1,0,0,0,0
285000,20,5,1,0,0,0,0
169000,3,0,1,0,0,0,0
246000,10,5,1,0,0,0,0
189000,1,1,0,1,0,0,0
177000,3,0,1,0,0,0,0
252000,20,1,0,0,0,0,1
520000,21,16,1,0,0,0,0
690000,12,1,1,0,0,0,0
520000,21,16,1,0,0,0,0
198000,3,3,0,1,0,0,0
214000,8,4,1,0,0,0,0
359000,18,7,1,0,0,0,0
288000,10,4,1,0,0,0,0
250000,12,5,0,0,1,0,0
255000,3,0,1,0,0,0,0
154000,7,2,1,0,0,0,0
169000,7,1,1,0,0,0,0
250000,8,1,1,0,0,0,0
208000,8,8,1,0,0,0,0
210000,10,0,1,0,0,0,0
144000,0,0,0,1,0,0,0
152000,2,0,1,0,0,0,0
246000,2,0,0,1,0,0,0
410000,4,2,1,0,0,0,0
215000,5,4,0,1,0,0,0
425000,10,5,0,1,0,0,0
182000,5,1,1,0,0,0,0
185000,3,0,0,1,0,0,0
264000,5,2,1,0,0,0,0
226000,8,0,1,0,0,0,0
198000,3,3,1,0,0,0,0
261000,8,2,0,1,0,0,0
290000,7,2,1,0,0,0,0
158000,2,0,0,1,0,0,0
240000,3,0,0,1,0,0,0
363000,20,4,0,1,0,0,0
140000,0,0,0,1,0,0,0
265000,25,15,0,1,0,0,0
150000,0,0,1,0,0,0,0
168000,3,1,0,1,0,0,0
182000,4,0,1,0,0,0,0
200000,15,1,0,1,0,0,0
204000,13,0,0,1,0,0,0
275000,16,15,0,1,0,0,0
181000,2,0,1,0,0,0,0
223000,8,0,1,0,0,0,0
550000,15,4,1,0,0,0,0
320000,12,1,1,0,0,0,0
129000,3,3,0,0,0,1,0
240000,13,7,1,0,0,0,0
255000,10,4,0,1,0,0,0
115000,1,1,0,1,0,0,0
291000,10,7,1,0,0,0,0
360000,18,6,1,0,0,0,0
173000,2,2,0,1,0,0,0
220000,12,7,1,0,0,0,0
254000,16,1,1,0,0,0,0
138000,0,0,0,1,0,0,0
210000,2,2,0,1,0,0,0
78000,1,1,0,1,0,0,0
234000,5,2,0,1,0,0,0
144000,0,0,0,1,0,0,0
325000,4,4,0,1,0,0,0
152000,10,3,0,0,1,0,0
298000,25,0,1,0,0,0,0
330000,22,5,0,0,0,1,0
355000,20,10,0,1,0,0,0
172000,5,5,0,1,0,0,0
200000,0,0,0,1,0,0,0
154000,10,3,0,1,0,0,0
211000,10,6,1,0,0,0,0
193000,5,5,0,1,0,0,0
272000,25,6,1,0,0,0,0
170000,15,2,0,1,0,0,0
132000,9,1,0,1,0,0,0
223000,5,5,0,1,0,0,0
161000,2,2,0,1,0,0,0
160000,5,3,0,1,0,0,0
370000,3,0,0,1,0,0,0
160000,3,0,0,1,0,0,0
275000,8,1,1,0,0,0,0
153000,2,0,1,0,0,0,0
200000,0,0,1,0,0,0,0
164000,8,0,1,0,0,0,0
152000,2,0,0,1,0,0,0
328000,8,0,0,0,1,0,0
238000,3,0,0,1,0,0,0
440000,10,2,1,0,0,0,0
310000,2,2,0,0,1,0,0
295000,7,2,0,1,0,0,0
181000,5,0,0,1,0,0,0
800000,18,0,0,0,1,0,0
210000,1,0,0,1,0,0,0
333000,4,0,0,0,1,0,0
187000,8,4,0,1,0,0,0
165000,3,0,1,0,0,0,0
282000,8,5,1,0,0,0,0
370000,12,1,0,1,0,0,0
850000,20,2,1,0,0,0,0
187000,17,0,0,1,0,0,0
185000,12,1,1,0,0,0,0
340000,6,4,0,1,0,0,0
275000,8,0,0,1,0,0,0
300000,17,0,0,1,0,0,0
94000,3,3,0,1,0,0,0
299000,6,6,1,0,0,0,0
216000,13,10,1,0,0,0,0
131000,3,0,1,0,0,0,0
400000,13,1,1,0,0,0,0
120000,3,1,1,0,0,0,0
244000,5,0,0,0,0,1,0
250000,6,2,0,1,0,0,0
351000,15,2,0,1,0,0,0
145000,2,0,1,0,0,0,0
225000,33,23,0,1,0,0,0
223000,6,3,0,1,0,0,0
232000,3,0,0,1,0,0,0
207000,0,0,0,1,0,0,0
165000,2,0,0,1,0,0,0
202000,20,3,0,1,0,0,0
355000,10,6,0,1,0,0,0
390000,14,0,1,0,0,0,0
555000,25,13,0,0,1,0,0
240000,4,4,1,0,0,0,0
219000,3,0,0,1,0,0,0
238000,4,4,0,1,0,0,0
293000,6,0,1,0,0,0,0
217000,17,8,1,0,0,0,0
240000,18,12,0,0,0,1,0
230000,16,10,1,0,0,0,0
340000,6,5,1,0,0,0,0
189000,0,0,0,1,0,0,0
138000,1,1,0,1,0,0,0
240000,0,0,0,0,1,0,0
188000,5,2,1,0,0,0,0
254000,2,2,0,1,0,0,0
120000,2,0,0,1,0,0,0
146000,8,6,0,1,0,0,0
190000,3,0,1,0,0,0,0
177000,1,1,1,0,0,0,0
303000,5,1,1,0,0,0,0
170000,5,5,1,0,0,0,0
226000,7,1,1,0,0,0,0
502000,10,8,0,1,0,0,0
360000,12,1,0,1,0,0,0
235000,11,9,0,1,0,0,0
209000,9,3,1,0,0,0,0
191000,0,0,0,1,0,0,0
180000,4,1,1,0,0,0,0
310000,11,0,1,0,0,0,0
228000,2,2,0,1,0,0,0
279000,3,3,0,1,0,0,0
539000,10,0,1,0,0,0,0
204000,7,7,0,1,0,0,0
311000,11,7,1,0,0,0,0
164000,8,4,1,0,0,0,0
700000,14,8,1,0,0,0,0
601000,14,0,1,0,0,0,0
146000,1,0,0,1,0,0,0
160000,8,2,0,1,0,0,0
215000,11,2,1,0,0,0,0
205000,5,2,0,1,0,0,0
276000,15,1,0,1,0,0,0
154000,1,1,1,0,0,0,0
259000,15,4,0,1,0,0,0
376000,20,6,1,0,0,0,0
180000,5,1,1,0,0,0,0
192000,2,2,0,1,0,0,0
205000,8,2,1,0,0,0,0
232000,2,0,0,1,0,0,0
210000,4,2,0,1,0,0,0
360000,8,2,1,0,0,0,0
170000,0,0,1,0,0,0,0
200000,14,1,1,0,0,0,0
165000,14,5,0,1,0,0,0
180000,1,1,0,1,0,0,0
125000,5,1,1,0,0,0,0
282000,7,0,1,0,0,0,0
190000,2,2,0,1,0,0,0
280000,15,1,0,1,0,0,0
143000,8,3,0,1,0,0,0
265000,4,0,0,1,0,0,0
136000,5,4,1,0,0,0,0
162000,5,5,0,1,0,0,0
160000,2,2,0,1,0,0,0
247000,10,3,1,0,0,0,0
207000,8,6,1,0,0,0,0
150000,0,0,0,1,0,0,0
506000,10,10,0,1,0,0,0
471000,30,2,0,0,0,0,1
203000,5,1,1,0,0,0,0
205000,5,3,1,0,0,0,0
208000,5,0,0,1,0,0,0
187000,0,0,0,1,0,0,0
245000,2,2,0,1,0,0,0
186000,7,5,1,0,0,0,0
342000,8,0,1,0,0,0,0
336000,13,0,1,0,0,0,0
175000,1,1,1,0,0,0,0
176000,10,1,0,1,0,0,0
297000,18,2,0,1,0,0,0
525000,19,1,1,0,0,0,0
290000,19,1,1,0,0,0,0
290000,17,12,0,1,0,0,0
225000,3,3,1,0,0,0,0
87000,0,0,0,1,0,0,0
225000,2,0,1,0,0,0,0
220000,14,5,1,0,0,0,0
171000,2,0,0,0,0,1,0
128000,3,1,1,0,0,0,0
175000,5,0,1,0,0,0,0
524000,17,0,1,0,0,0,0
340000,15,15,0,1,0,0,0
400000,3,3,0,0,1,0,0
130000,1,1,0,1,0,0,0
220000,7,4,1,0,0,0,0
222000,12,2,0,1,0,0,0
206000,2,2,0,1,0,0,0
153000,1,0,1,0,0,0,0
207000,7,4,1,0,0,0,0
195000,6,4,0,1,0,0,0
160000,5,2,0,1,0,0,0
215000,3,3,0,1,0,0,0
190000,5,3,0,1,0,0,0
161000,9,1,0,1,0,0,0
155000,5,0,1,0,0,0,0
450000,15,5,1,0,0,0,0
225000,9,2,1,0,0,0,0
163000,5,5,0,1,0,0,0
157000,4,3,1,0,0,0,0
517000,7,0,1,0,0,0,0
130000,5,5,0,1,0,0,0
286000,18,18,1,0,0,0,0
188000,0,0,0,1,0,0,0
420000,15,7,0,1,0,0,0
200000,12,2,0,1,0,0,0
244000,15,2,0,1,0,0,0
133000,3,2,1,0,0,0,0
200000,2,2,0,1,0,0,0
197000,4,0,0,1,0,0,0
152000,2,2,0,1,0,0,0
230000,5,0,1,0,0,0,0
313000,22,9,1,0,0,0,0
337000,15,3,1,0,0,0,0
250000,6,2,0,1,0,0,0
214000,4,0,1,0,0,0,0
159000,1,1,0,1,0,0,0
205000,5,3,1,0,0,0,0
264000,15,11,0,1,0,0,0
239000,11,9,0,1,0,0,0
456000,17,4,1,0,0,0,0
176000,8,2,0,1,0,0,0
197000,5,2,1,0,0,0,0
182000,9,5,0,1,0,0,0
240000,21,4,1,0,0,0,0
165000,3,3,1,0,0,0,0
85000,14,3,1,0,0,0,0
176000,6,4,1,0,0,0,0
163000,2,0,0,1,0,0,0
276000,8,3,1,0,0,0,0
175000,10,5,0,1,0,0,0
530000,14,10,1,0,0,0,0
120000,5,1,0,1,0,0,0
205000,5,1,1,0,0,0,0
280000,6,0,1,0,0,0,0
239000,4,3,1,0,0,0,0
141000,0,0,0,1,0,0,0
460000,11,10,0,1,0,0,0
188000,20,6,0,1,0,0,0
168000,0,0,0,1,0,0,0
321000,6,5,1,0,0,0,0
224000,15,4,1,0,0,0,0
508000,14,0,0,1,0,0,0
85000,0,0,0,1,0,0,0
1130000,13,0,1,0,0,0,0
175000,4,0,1,0,0,0,0
305000,5,2,0,1,0,0,0
210000,7,3,1,0,0,0,0
258000,8,0,1,0,0,0,0
368000,10,1,1,0,0,0,0
167000,2,1,0,1,0,0,0
305000,9,0,0,1,0,0,0
121000,0,0,0,1,0,0,0
155000,4,0,1,0,0,0,0
481000,19,1,0,1,0,0,0
390000,5,3,0,1,0,0,0
135000,4,2,1,0,0,0,0
375000,4,4,1,0,0,0,0
161000,7,7,0,0,0,0,1
317000,8,2,0,1,0,0,0
123000,10,0,1,0,0,0,0
300000,5,0,1,0,0,0,0
349000,14,1,1,0,0,0,0
523000,15,8,1,0,0,0,0
133000,6,2,1,0,0,0,0
760000,23,2,1,0,0,0,0
135000,6,2,0,0,1,0,0
277000,16,6,1,0,0,0,0
175000,2,0,0,1,0,0,0
307000,4,0,1,0,0,0,0
163000,16,3,0,1,0,0,0
163000,16,3,0,1,0,0,0
244000,5,5,0,1,0,0,0
150000,0,0,0,1,0,0,0
200000,4,4,1,0,0,0,0
155000,8,2,1,0,0,0,0
222000,8,1,0,1,0,0,0
140000,1,0,0,1,0,0,0
263000,5,5,0,1,0,0,0
233000,10,3,0,0,0,0,1
273000,5,0,1,0,0,0,0
192000,1,1,0,1,0,0,0
154000,2,0,0,1,0,0,0
251000,7,0,0,1,0,0,0
352000,7,0,1,0,0,0,0
92000,3,3,0,1,0,0,0
360000,8,0,0,1,0,0,0
180000,0,0,1,0,0,0,0
184000,3,3,0,1,0,0,0
202000,0,0,0,0,1,0,0
140000,1,1,1,0,0,0,0
998000,30,2,1,0,0,0,0
240000,10,4,1,0,0,0,0
310000,16,4,1,0,0,0,0
423000,11,6,0,1,0,0,0
155000,7,1,1,0,0,0,0
455000,8,3,0,1,0,0,0
150000,0,0,0,1,0,0,0
176000,3,0,1,0,0,0,0
268000,32,4,1,0,0,0,0
149000,7,1,1,0,0,0,0
236000,8,2,1,0,0,0,0
136000,7,6,0,1,0,0,0
487000,15,0,1,0,0,0,0
375000,11,2,1,0,0,0,0
390000,15,3,1,0,0,0,0
130000,2,2,0,1,0,0,0
179000,3,2,0,1,0,0,0
200000,2,0,1,0,0,0,0
165000,6,6,0,1,0,0,0
70000,7,3,0,1,0,0,0
150000,0,0,0,1,0,0,0
166000,3,2,0,0,0,1,0
135000,4,2,1,0,0,0,0
196000,3,0,0,0,0,0,1
525000,15,7,0,0,1,0,0
356000,18,2,0,1,0,0,0
253000,7,7,0,1,0,0,0
330000,12,0,0,1,0,0,0
175000,10,0,1,0,0,0,0
452000,20,5,1,0,0,0,0
295000,9,9,0,1,0,0,0
205000,3,3,0,1,0,0,0
114000,7,3,0,1,0,0,0
255000,11,1,1,0,0,0,0
175000,6,1,1,0,0,0,0
197000,6,6,1,0,0,0,0
270000,12,7,1,0,0,0,0
193000,2,0,1,0,0,0,0
177000,1,0,1,0,0,0,0
312000,18,8,0,1,0,0,0
99000,4,2,1,0,0,0,0
100000,5,2,1,0,0,0,0
95000,2,1,1,0,0,0,0
80000,0,0,0,1,0,0,0
95000,3,0,0,1,0,0,0
210000,10,6,0,1,0,0,0
241000,4,4,0,1,0,0,0
80000,2,2,0,1,0,0,0
125000,8,3,0,0,1,0,0
116000,6,4,0,1,0,0,0
122000,9,4,0,1,0,0,0
100000,4,1,0,1,0,0,0
150000,3,3,0,1,0,0,0
320000,6,6,1,0,0,0,0
244000,5,3,0,1,0,0,0
549000,15,8,0,0,0,0,1
215000,8,6,0,1,0,0,0
190000,3,0,1,0,0,0,0
147000,4,4,0,1,0,0,0
170000,10,1,0,1,0,0,0
143000,0,0,0,1,0,0,0
205000,7,7,0,1,0,0,0
160000,10,1,0,1,0,0,0
575000,15,5,0,1,0,0,0
240000,2,0,1,0,0,0,0
250000,8,1,1,0,0,0,0
220000,20,3,1,0,0,0,0
355000,20,20,0,1,0,0,0
278000,10,2,0,0,0,1,0
126000,3,3,0,1,0,0,0
485000,14,3,0,1,0,0,0
251000,21,2,1,0,0,0,0
223000,15,5,1,0,0,0,0
315000,10,6,0,1,0,0,0
510000,11,9,1,0,0,0,0
252000,6,1,0,1,0,0,0
177000,25,2,0,1,0,0,0
206000,15,10,1,0,0,0,0
183000,15,5,0,1,0,0,0
257000,25,13,1,0,0,0,0
150000,0,0,0,1,0,0,0
160000,1,1,0,1,0,0,0
128000,5,2,0,1,0,0,0
205000,7,0,1,0,0,0,0
450000,15,2,1,0,0,0,0
215000,2,0,0,1,0,0,0
144000,2,1,0,1,0,0,0
535000,13,13,1,0,0,0,0
225000,11,11,0,0,1,0,0
233000,7,0,1,0,0,0,0
213000,5,5,1,0,0,0,0
216000,8,1,1,0,0,0,0
151000,5,1,1,0,0,0,0
518000,6,0,1,0,0,0,0
650000,30,15,0,1,0,0,0
170000,4,0,1,0,0,0,0
407000,10,2,0,1,0,0,0
203000,2,2,0,0,1,0,0
140000,1,1,1,0,0,0,0
140000,3,3,1,0,0,0,0
242000,2,2,0,1,0,0,0
169000,20,0,0,0,0,0,1
235000,4,1,1,0,0,0,0
250000,15,14,0,1,0,0,0
167000,2,2,1,0,0,0,0
239000,6,0,1,0,0,0,0
185000,0,0,0,1,0,0,0
245000,8,0,0,1,0,0,0
150000,3,0,1,0,0,0,0
570000,10,4,1,0,0,0,0
150000,4,2,1,0,0,0,0
168000,1,1,0,1,0,0,0
100000,4,4,0,1,0,0,0
251000,0,0,1,0,0,0,0
101000,15,15,1,0,0,0,0
497000,18,4,1,0,0,0,0
261000,25,14,1,0,0,0,0
277000,10,6,0,1,0,0,0
129000,3,2,0,1,0,0,0
388000,10,5,1,0,0,0,0
368000,21,21,1,0,0,0,0
210000,9,4,1,0,0,0,0
669000,10,3,1,0,0,0,0
185000,3,0,1,0,0,0,0
301000,15,10,0,1,0,0,0
161000,0,0,1,0,0,0,0
297000,8,8,0,1,0,0,0
163000,1,1,0,1,0,0,0
343000,30,0,1,0,0,0,0
325000,7,4,1,0,0,0,0
196000,0,0,0,1,0,0,0
323000,8,1,1,0,0,0,0
218000,15,4,0,1,0,0,0
186000,5,1,0,1,0,0,0
160000,2,2,0,1,0,0,0
352000,10,1,1,0,0,0,0
170000,1,1,1,0,0,0,0
190000,6,0,1,0,0,0,0
234000,6,0,0,1,0,0,0
152000,0,0,0,1,0,0,0
136000,9,1,1,0,0,0,0
160000,1,0,0,1,0,0,0
240000,13,0,0,1,0,0,0
390000,20,2,1,0,0,0,0
247000,14,5,0,1,0,0,0
739000,11,6,0,1,0,0,0
245000,8,0,1,0,0,0,0
100000,3,2,1,0,0,0,0
335000,11,11,1,0,0,0,0
178000,4,0,0,1,0,0,0
365000,10,8,0,1,0,0,0
386000,12,0,0,1,0,0,0
233000,14,6,0,1,0,0,0
138000,0,0,0,1,0,0,0
280000,5,0,1,0,0,0,0
172000,5,5,0,1,0,0,0
153000,10,1,0,1,0,0,0
257000,7,2,0,1,0,0,0
228000,10,2,0,1,0,0,0
171000,5,0,0,1,0,0,0
660000,25,7,1,0,0,0,0
310000,9,9,1,0,0,0,0
204000,12,9,1,0,0,0,0
182000,7,7,0,0,1,0,0
497000,20,9,0,1,0,0,0
120000,1,1,0,0,0,0,1
199000,7,5,0,0,0,1,0
200000,4,4,0,1,0,0,0
239000,7,1,1,0,0,0,0
165000,1,1,0,1,0,0,0
380000,2,2,1,0,0,0,0
260000,4,0,1,0,0,0,0
151000,5,2,0,1,0,0,0
525000,15,1,1,0,0,0,0
138000,0,0,1,0,0,0,0
171000,1,1,1,0,0,0,0
450000,16,9,1,0,0,0,0
170000,8,6,1,0,0,0,0
215000,15,6,0,1,0,0,0
133000,5,1,0,1,0,0,0
310000,9,9,1,0,0,0,0
650000,15,4,0,1,0,0,0
390000,5,3,0,1,0,0,0
170000,5,3,0,1,0,0,0
200000,15,15,1,0,0,0,0
338000,6,6,1,0,0,0,0
160000,0,0,0,1,0,0,0
160000,6,5,0,1,0,0,0
509000,16,9,1,0,0,0,0
200000,7,2,1,0,0,0,0
280000,4,4,0,1,0,0,0
420000,20,0,0,1,0,0,0
256000,1,1,0,1,0,0,0
166000,1,0,0,1,0,0,0
128000,2,2,1,0,0,0,0
384000,23,23,0,1,0,0,0
240000,5,3,1,0,0,0,0
760000,14,11,1,0,0,0,0
171000,5,0,0,1,0,0,0
165000,3,1,0,1,0,0,0
214000,12,7,0,1,0,0,0
173000,1,1,0,1,0,0,0
205000,2,0,0,1,0,0,0
250000,6,0,1,0,0,0,0
157000,1,1,0,1,0,0,0
173000,1,1,0,1,0,0,0
170000,10,3,0,1,0,0,0
223000,10,5,1,0,0,0,0
285000,5,3,1,0,0,0,0
107000,4,4,0,1,0,0,0
154000,1,0,0,1,0,0,0
258000,0,0,0,0,1,0,0
525000,10,6,1,0,0,0,0
385000,5,1,0,1,0,0,0
18000,0,0,0,0,0,0,1
200000,2,0,0,1,0,0,0
130000,5,1,0,1,0,0,0
325000,3,0,0,1,0,0,0
375000,3,0,0,1,0,0,0
300000,14,6,1,0,0,0,0
142000,3,2,0,1,0,0,0
191000,3,3,1,0,0,0,0
175000,13,1,1,0,0,0,0
178000,1,1,0,1,0,0,0
225000,20,1,1,0,0,0,0
164000,2,0,0,1,0,0,0
375000,16,0,0,1,0,0,0
257000,17,0,1,0,0,0,0
250000,12,1,0,0,0,0,1
430000,25,2,0,0,0,0,1
154000,1,1,0,1,0,0,0
155000,0,0,0,1,0,0,0
240000,2,0,0,1,0,0,0
108000,2,2,0,1,0,0,0
130000,3,0,0,0,0,1,0
132000,1,1,0,1,0,0,0
145000,1,1,0,1,0,0,0
155000,4,2,1,0,0,0,0
450000,15,12,1,0,0,0,0
245000,12,6,1,0,0,0,0
198000,4,0,0,0,0,1,0
300000,13,5,1,0,0,0,0
526000,14,0,0,1,0,0,0
195000,2,2,0,1,0,0,0
260000,9,0,1,0,0,0,0
540000,19,19,0,1,0,0,0
238000,5,5,0,1,0,0,0
135000,2,2,0,1,0,0,0
468000,15,8,0,1,0,0,0
247000,6,0,1,0,0,0,0
138000,0,0,0,1,0,0,0
320000,23,21,0,1,0,0,0
372000,9,8,1,0,0,0,0
240000,6,0,1,0,0,0,0
152000,0,0,0,1,0,0,0
674000,13,3,0,0,1,0,0
400000,10,5,1,0,0,0,0
150000,3,3,1,0,0,0,0
260000,24,16,0,0,0,0,1
150000,0,0,1,0,0,0,0
210000,2,0,0,1,0,0,0
166000,3,3,0,1,0,0,0
175000,2,0,1,0,0,0,0
115000,1,0,0,1,0,0,0
200000,3,3,0,0,1,0,0
400000,20,1,0,1,0,0,0
187000,6,6,1,0,0,0,0
359000,28,24,0,1,0,0,0
173000,22,10,0,1,0,0,0
210000,5,1,1,0,0,0,0
200000,5,0,1,0,0,0,0
340000,8,5,1,0,0,0,0
256000,9,2,0,1,0,0,0
138000,4,4,0,1,0,0,0
393000,8,0,1,0,0,0,0
137000,3,3,0,1,0,0,0
332000,5,1,0,0,1,0,0
163000,5,5,1,0,0,0,0
305000,9,4,0,1,0,0,0
156000,5,5,0,1,0,0,0
205000,6,4,0,1,0,0,0
413000,21,5,0,1,0,0,0
295000,5,1,0,0,1,0,0
212000,12,5,1,0,0,0,0
150000,0,0,0,1,0,0,0
217000,4,4,1,0,0,0,0
284000,5,1,1,0,0,0,0
237000,13,5,1,0,0,0,0
185000,5,0,1,0,0,0,0
145000,10,8,0,1,0,0,0
128000,1,1,0,1,0,0,0
300000,9,0,1,0,0,0,0
205000,3,1,1,0,0,0,0
261000,18,15,1,0,0,0,0
280000,5,1,0,1,0,0,0
210000,7,6,0,1,0,0,0
295000,9,9,0,1,0,0,0
300000,10,3,1,0,0,0,0
1037000,25,11,0,1,0,0,0
173000,2,1,0,1,0,0,0
560000,10,1,0,0,1,0,0
600000,11,1,0,0,1,0,0
625000,20,0,1,0,0,0,0
267000,12,0,0,1,0,0,0
163000,5,3,0,0,1,0,0
98000,5,3,1,0,0,0,0
296000,14,7,0,1,0,0,0
561000,25,0,1,0,0,0,0
688000,25,2,1,0,0,0,0
205000,2,2,1,0,0,0,0
165000,6,1,1,0,0,0,0
446000,16,15,0,1,0,0,0
200000,10,0,0,1,0,0,0
690000,15,3,1,0,0,0,0
185000,3,1,1,0,0,0,0
188000,1,1,1,0,0,0,0
193000,5,5,1,0,0,0,0
152000,0,0,0,1,0,0,0
395000,11,1,1,0,0,0,0
341000,4,0,0,1,0,0,0
206000,15,2,1,0,0,0,0
172000,2,0,0,1,0,0,0
171000,0,0,0,1,0,0,0
172000,2,0,0,1,0,0,0
300000,15,9,0,1,0,0,0
450000,17,17,1,0,0,0,0
279000,2,2,1,0,0,0,0
229000,15,3,1,0,0,0,0
200000,8,4,1,0,0,0,0
270000,14,0,1,0,0,0,0
180000,1,0,1,0,0,0,0
165000,16,6,0,1,0,0,0
653000,10,6,0,1,0,0,0
300000,15,3,1,0,0,0,0
380000,15,8,0,1,0,0,0
340000,8,5,1,0,0,0,0
204000,6,3,1,0,0,0,0
320000,18,5,0,1,0,0,0
165000,0,0,1,0,0,0,0
320000,16,6,0,0,1,0,0
169000,6,2,0,1,0,0,0
320000,18,5,0,1,0,0,0
144000,0,0,1,0,0,0,0
217000,9,0,1,0,0,0,0
252000,6,6,0,1,0,0,0
550000,25,4,1,0,0,0,0
395000,25,2,0,0,0,0,1
442000,9,0,0,1,0,0,0
139000,1,0,0,1,0,0,0
323000,20,1,0,0,0,1,0
94000,7,4,0,1,0,0,0
363000,5,0,1,0,0,0,0
360000,15,4,1,0,0,0,0
238000,6,4,1,0,0,0,0
183000,4,1,1,0,0,0,0
137000,2,2,0,1,0,0,0
175000,0,0,0,1,0,0,0
344000,15,4,1,0,0,0,0
188000,6,6,0,1,0,0,0
213000,3,0,1,0,0,0,0
134000,7,7,0,1,0,0,0
385000,6,0,0,1,0,0,0
200000,3,3,0,1,0,0,0
590000,14,14,1,0,0,0,0
156000,8,1,1,0,0,0,0
350000,10,1,0,1,0,0,0
138000,6,3,1,0,0,0,0
140000,3,3,1,0,0,0,0
150000,6,4,0,0,1,0,0
147000,1,1,1,0,0,0,0
328000,12,8,1,0,0,0,0
730000,7,0,0,1,0,0,0
270000,6,2,1,0,0,0,0
187000,4,0,1,0,0,0,0
250000,10,6,0,1,0,0,0
359000,15,0,0,1,0,0,0
95000,3,2,0,1,0,0,0
167000,2,0,0,1,0,0,0
202000,10,1,1,0,0,0,0
414000,15,0,0,1,0,0,0
200000,4,4,0,1,0,0,0
179000,3,3,1,0,0,0,0
350000,5,1,0,0,1,0,0
280000,3,0,0,1,0,0,0
148000,0,0,0,1,0,0,0
500000,17,10,1,0,0,0,0
330000,13,2,0,1,0,0,0
158000,2,0,0,1,0,0,0
235000,7,5,1,0,0,0,0
176000,2,0,1,0,0,0,0
164000,16,6,0,1,0,0,0
191000,4,2,0,1,0,0,0
566000,20,4,1,0,0,0,0
467000,10,2,0,1,0,0,0
165000,0,0,1,0,0,0,0
151000,2,1,1,0,0,0,0
166000,1,1,1,0,0,0,0
169000,3,3,0,1,0,0,0
290000,3,2,0,0,1,0,0
228000,10,7,1,0,0,0,0
241000,15,1,0,1,0,0,0
292000,6,6,0,1,0,0,0
520000,20,3,1,0,0,0,0
204000,20,11,1,0,0,0,0
896000,19,0,0,1,0,0,0
220000,1,0,0,1,0,0,0
283000,7,7,0,1,0,0,0
205000,15,2,1,0,0,0,0
200000,15,7,1,0,0,0,0
157000,6,0,1,0,0,0,0
415000,3,3,0,0,1,0,0
374000,15,1,1,0,0,0,0
165000,7,5,0,1,0,0,0
518000,19,3,1,0,0,0,0
320000,28,1,1,0,0,0,0
179000,2,1,1,0,0,0,0
480000,12,8,1,0,0,0,0
300000,8,5,1,0,0,0,0
183000,1,1,1,0,0,0,0
251000,4,0,1,0,0,0,0
620000,12,0,1,0,0,0,0
195000,2,0,1,0,0,0,0
280000,5,1,0,1,0,0,0
208000,5,4,1,0,0,0,0
214000,4,4,0,1,0,0,0
272000,4,2,0,0,0,0,1
300000,12,1,1,0,0,0,0
190000,3,1,1,0,0,0,0
195000,3,3,1,0,0,0,0
218000,8,2,0,1,0,0,0
207000,5,1,0,1,0,0,0
221000,10,2,1,0,0,0,0
164000,1,0,1,0,0,0,0
208000,2,0,0,0,1,0,0
182000,6,4,0,1,0,0,0
690000,11,3,0,0,1,0,0
215000,4,4,0,1,0,0,0
448000,40,8,0,1,0,0,0
1100000,15,2,1,0,0,0,0
198000,2,2,0,1,0,0,0
175000,5,0,0,1,0,0,0
178000,0,0,1,0,0,0,0
300000,9,0,1,0,0,0,0
340000,0,0,0,0,1,0,0
146000,1,1,0,1,0,0,0
270000,15,5,0,1,0,0,0
600000,20,4,0,1,0,0,0
170000,1,1,0,1,0,0,0
162000,7,4,1,0,0,0,0
141000,0,0,0,1,0,0,0
289000,9,0,0,1,0,0,0
225000,4,2,0,1,0,0,0
158000,0,0,1,0,0,0,0
168000,4,0,1,0,0,0,0
258000,15,10,1,0,0,0,0
130000,7,1,0,1,0,0,0
325000,20,12,0,0,0,0,1
480000,22,5,1,0,0,0,0
175000,0,0,1,0,0,0,0
295000,5,3,1,0,0,0,0
100000,4,4,1,0,0,0,0
130000,10,10,0,1,0,0,0
232000,1,0,0,0,1,0,0
208000,2,2,0,1,0,0,0
158000,9,4,0,1,0,0,0
330000,10,0,1,0,0,0,0
284000,3,0,0,1,0,0,0
199000,6,0,1,0,0,0,0
284000,17,9,1,0,0,0,0
190000,7,4,1,0,0,0,0
190000,5,3,1,0,0,0,0
185000,2,2,0,1,0,0,0
567000,22,7,1,0,0,0,0
209000,2,2,1,0,0,0,0
390000,7,0,1,0,0,0,0
238000,7,4,0,1,0,0,0
124000,10,1,0,1,0,0,0
231000,4,0,0,1,0,0,0
163000,3,3,1,0,0,0,0
260000,9,8,0,1,0,0,0
405000,18,14,1,0,0,0,0
258000,2,0,1,0,0,0,0
148000,3,2,1,0,0,0,0
230000,4,0,1,0,0,0,0
185000,2,2,0,1,0,0,0
170000,1,0,1,0,0,0,0
365000,10,6,1,0,0,0,0
289000,15,0,0,1,0,0,0
268000,4,4,1,0,0,0,0
210000,8,1,1,0,0,0,0
430000,11,4,0,1,0,0,0
200000,5,0,1,0,0,0,0
253000,8,3,1,0,0,0,0
195000,3,3,0,1,0,0,0
224000,6,5,0,1,0,0,0
214000,5,5,1,0,0,0,0
270000,4,0,0,1,0,0,0
230000,3,3,0,1,0,0,0
260000,7,0,1,0,0,0,0
220000,7,5,1,0,0,0,0
107000,1,0,0,1,0,0,0
136000,3,2,1,0,0,0,0
231000,4,0,1,0,0,0,0
290000,10,3,0,0,0,0,1
240000,5,2,1,0,0,0,0
184000,6,4,0,1,0,0,0
244000,13,9,0,1,0,0,0
110000,6,6,1,0,0,0,0
222000,1,0,1,0,0,0,0
181000,7,3,1,0,0,0,0
181000,7,3,1,0,0,0,0
287000,15,0,1,0,0,0,0
323000,7,7,0,1,0,0,0
300000,4,1,0,0,1,0,0
146000,3,3,0,1,0,0,0
180000,14,2,1,0,0,0,0
225000,15,5,0,1,0,0,0
176000,0,0,1,0,0,0,0
284000,12,6,1,0,0,0,0
425000,14,10,1,0,0,0,0
235000,10,2,1,0,0,0,0
240000,16,3,0,1,0,0,0
300000,4,4,1,0,0,0,0
288000,5,0,1,0,0,0,0
267000,10,5,1,0,0,0,0
646000,17,0,0,1,0,0,0
229000,7,0,1,0,0,0,0
217000,7,4,1,0,0,0,0
113000,5,2,1,0,0,0,0
284000,8,7,0,1,0,0,0
375000,16,4,0,1,0,0,0
225000,16,0,0,0,0,1,0
212000,10,10,0,1,0,0,0
650000,20,3,1,0,0,0,0
220000,3,3,0,1,0,0,0
340000,8,1,1,0,0,0,0
187000,3,0,0,1,0,0,0
205000,5,5,0,1,0,0,0
268000,6,2,1,0,0,0,0
225000,4,4,0,1,0,0,0
204000,2,2,0,1,0,0,0
229000,4,4,0,1,0,0,0
251000,3,0,0,1,0,0,0
295000,10,1,0,0,1,0,0
240000,6,0,1,0,0,0,0
157000,0,0,1,0,0,0,0
200000,3,3,0,1,0,0,0
367000,7,7,0,1,0,0,0
185000,2,1,1,0,0,0,0
200000,5,0,1,0,0,0,0
268000,5,2,0,1,0,0,0
175000,24,23,1,0,0,0,0
160000,1,1,1,0,0,0,0
270000,2,2,0,1,0,0,0
405000,10,4,1,0,0,0,0
140000,1,1,1,0,0,0,0
147000,1,1,1,0,0,0,0
170000,7,7,1,0,0,0,0
392000,8,8,0,1,0,0,0
171000,0,0,1,0,0,0,0
310000,10,0,0,1,0,0,0
310000,10,6,1,0,0,0,0
210000,20,15,1,0,0,0,0
339000,8,8,0,1,0,0,0
440000,13,4,1,0,0,0,0
209000,4,2,1,0,0,0,0
290000,18,1,1,0,0,0,0
300000,10,4,1,0,0,0,0
315000,6,4,1,0,0,0,0
198000,2,2,1,0,0,0,0
178000,2,0,1,0,0,0,0
178000,15,5,1,0,0,0,0
175000,3,0,1,0,0,0,0
300000,15,8,1,0,0,0,0
162000,3,1,0,1,0,0,0
141000,2,0,1,0,0,0,0
279000,6,3,1,0,0,0,0
225000,5,5,0,1,0,0,0
288000,9,9,0,1,0,0,0
153000,12,1,0,1,0,0,0
270000,0,0,1,0,0,0,0
437000,15,9,1,0,0,0,0
126000,2,0,0,1,0,0,0
186000,1,1,0,1,0,0,0
308000,25,10,0,1,0,0,0
216000,4,2,0,1,0,0,0
328000,4,0,0,1,0,0,0
134000,2,2,1,0,0,0,0
245000,20,2,1,0,0,0,0
207000,8,4,0,1,0,0,0
243000,4,3,1,0,0,0,0
164000,2,2,0,1,0,0,0
180000,3,3,1,0,0,0,0
234000,22,13,0,1,0,0,0
132000,3,3,0,1,0,0,0
191000,9,9,1,0,0,0,0
106000,1,0,0,1,0,0,0
910000,5,3,0,0,1,0,0
200000,6,2,1,0,0,0,0
335000,9,3,1,0,0,0,0
390000,18,9,1,0,0,0,0
450000,18,9,1,0,0,0,0
185000,2,0,1,0,0,0,0
176000,4,0,1,0,0,0,0
180000,9,5,1,0,0,0,0
181000,8,5,1,0,0,0,0
250000,12,2,1,0,0,0,0
280000,5,5,0,1,0,0,0
298000,7,5,1,0,0,0,0
234000,15,4,1,0,0,0,0
1300000,15,5,0,1,0,0,0
238000,20,4,1,0,0,0,0
280000,5,4,0,1,0,0,0
178000,10,0,1,0,0,0,0
200000,4,0,1,0,0,0,0
233000,14,1,0,1,0,0,0
363000,15,2,1,0,0,0,0
171000,8,5,1,0,0,0,0
307000,5,5,1,0,0,0,0
154000,2,0,0,1,0,0,0
252000,4,0,1,0,0,0,0
228000,2,1,0,0,1,0,0
251000,9,1,0,1,0,0,0
182000,10,1,0,0,0,0,1
284000,8,7,0,1,0,0,0
505000,20,5,0,1,0,0,0
190000,9,4,1,0,0,0,0
237000,8,0,1,0,0,0,0
304000,9,7,0,1,0,0,0
210000,3,0,0,1,0,0,0
530000,26,22,0,1,0,0,0
205000,4,1,0,0,1,0,0
210000,6,1,1,0,0,0,0
235000,8,0,1,0,0,0,0
200000,4,4,0,1,0,0,0
300000,25,2,1,0,0,0,0
188000,2,2,0,1,0,0,0
488000,15,8,0,1,0,0,0
210000,12,4,1,0,0,0,0
225000,10,3,0,1,0,0,0
380000,8,1,1,0,0,0,0
145000,1,1,0,1,0,0,0
172000,3,3,1,0,0,0,0
400000,11,11,1,0,0,0,0
331000,13,4,0,0,1,0,0
330000,8,3,0,0,1,0,0
402000,10,6,1,0,0,0,0
212000,12,4,0,1,0,0,0
150000,0,0,1,0,0,0,0
334000,13,1,1,0,0,0,0
155000,3,2,0,1,0,0,0
170000,8,0,1,0,0,0,0
410000,8,1,0,1,0,0,0
169000,0,0,0,1,0,0,0
159000,3,0,1,0,0,0,0
150000,5,0,1,0,0,0,0
165000,4,0,0,1,0,0,0
220000,4,4,0,1,0,0,0
196000,14,13,1,0,0,0,0
194000,3,3,0,0,1,0,0
414000,13,5,1,0,0,0,0
530000,18,1,1,0,0,0,0
560000,27,4,1,0,0,0,0
153000,0,0,1,0,0,0,0
243000,5,5,0,1,0,0,0
167000,5,5,1,0,0,0,0
236000,9,1,1,0,0,0,0
231000,3,0,0,0,0,0,1
120000,4,4,1,0,0,0,0
201000,5,2,1,0,0,0,0
220000,8,6,0,1,0,0,0
405000,20,1,1,0,0,0,0
167000,2,0,1,0,0,0,0
307000,10,0,1,0,0,0,0
295000,5,4,1,0,0,0,0
250000,3,3,1,0,0,0,0
269000,7,0,1,0,0,0,0
208000,13,8,0,1,0,0,0
225000,4,4,0,1,0,0,0
361000,9,9,0,1,0,0,0
200000,3,3,1,0,0,0,0
393000,13,0,1,0,0,0,0
163000,1,0,1,0,0,0,0
275000,8,2,1,0,0,0,0
172000,4,2,1,0,0,0,0
250000,10,10,1,0,0,0,0
300000,10,1,1,0,0,0,0
278000,9,2,0,0,1,0,0
225000,10,5,1,0,0,0,0
440000,10,3,1,0,0,0,0
275000,18,7,1,0,0,0,0
136000,0,0,0,1,0,0,0
184000,16,6,0,0,1,0,0
215000,11,6,0,1,0,0,0
199000,5,3,1,0,0,0,0
170000,2,0,1,0,0,0,0
222000,3,1,1,0,0,0,0
300000,5,5,0,1,0,0,0
245000,5,0,1,0,0,0,0
179000,8,2,0,1,0,0,0
179000,1,1,0,1,0,0,0
245000,4,0,0,1,0,0,0
162000,0,0,0,1,0,0,0
282000,27,19,0,1,0,0,0
200000,5,2,1,0,0,0,0
214000,3,3,0,1,0,0,0
216000,6,4,1,0,0,0,0
209000,13,3,0,1,0,0,0
176000,3,0,1,0,0,0,0
150000,8,5,0,1,0,0,0
143000,0,0,0,1,0,0,0
254000,8,4,0,1,0,0,0
660000,23,9,1,0,0,0,0
248000,7,7,0,1,0,0,0
322000,13,13,0,1,0,0,0
209000,5,0,1,0,0,0,0
133000,10,3,1,0,0,0,0
263000,15,11,0,1,0,0,0
261000,8,4,0,1,0,0,0
178000,7,7,0,1,0,0,0
173000,1,0,1,0,0,0,0
294000,7,4,1,0,0,0,0
291000,15,6,1,0,0,0,0
207000,5,5,0,1,0,0,0
200000,0,0,1,0,0,0,0
210000,17,9,1,0,0,0,0
441000,5,4,1,0,0,0,0
152000,5,4,1,0,0,0,0
185000,4,4,1,0,0,0,0
154000,0,0,0,1,0,0,0
285000,12,7,1,0,0,0,0
325000,5,3,0,1,0,0,0
319000,10,5,1,0,0,0,0
184000,3,3,0,1,0,0,0
340000,9,9,0,1,0,0,0
400000,9,0,0,0,1,0,0
240000,10,7,1,0,0,0,0
248000,3,2,0,0,1,0,0
308000,10,8,0,1,0,0,0
170000,10,5,1,0,0,0,0
160000,2,2,0,1,0,0,0
144000,0,0,1,0,0,0,0
155000,3,3,0,1,0,0,0
260000,11,1,1,0,0,0,0
271000,2,0,0,1,0,0,0
237000,10,4,0,1,0,0,0
450000,15,5,0,0,1,0,0
324000,12,1,0,1,0,0,0
160000,1,1,1,0,0,0,0
157000,0,0,1,0,0,0,0
168000,3,3,0,1,0,0,0
306000,7,6,0,1,0,0,0
454000,12,8,1,0,0,0,0
103000,5,5,1,0,0,0,0
150000,5,2,1,0,0,0,0
300000,15,5,1,0,0,0,0
232000,8,8,1,0,0,0,0
551000,5,5,0,1,0,0,0
188000,3,1,0,1,0,0,0
190000,10,5,0,1,0,0,0
250000,12,2,1,0,0,0,0
158000,2,0,0,0,0,0,1
323000,8,7,0,1,0,0,0
175000,4,3,0,1,0,0,0
418000,3,0,0,0,1,0,0
251000,7,2,0,1,0,0,0
110000,3,0,0,1,0,0,0
180000,5,3,0,1,0,0,0
175000,10,2,1,0,0,0,0
212000,0,0,0,1,0,0,0
231000,8,0,0,1,0,0,0
700000,22,7,1,0,0,0,0
170000,8,5,0,0,0,1,0
225000,7,6,1,0,0,0,0
207000,2,0,0,1,0,0,0
341000,13,4,0,1,0,0,0
175000,6,6,0,1,0,0,0
400000,9,8,0,1,0,0,0
184000,8,2,1,0,0,0,0
283000,7,6,0,1,0,0,0
263000,10,2,0,0,1,0,0
297000,5,4,0,1,0,0,0
470000,8,0,0,0,1,0,0
178000,2,0,1,0,0,0,0
255000,2,0,0,1,0,0,0
190000,5,2,0,1,0,0,0
222000,8,6,1,0,0,0,0
258000,18,8,1,0,0,0,0
545000,19,13,0,1,0,0,0
172000,3,0,1,0,0,0,0
157000,6,2,1,0,0,0,0
293000,5,0,1,0,0,0,0
360000,5,0,1,0,0,0,0
260000,38,8,1,0,0,0,0
240000,14,0,0,1,0,0,0
194000,2,2,1,0,0,0,0
170000,4,0,0,1,0,0,0
225000,5,5,0,0,1,0,0
149000,3,1,0,0,1,0,0
170000,1,1,0,1,0,0,0
180000,3,2,1,0,0,0,0
250000,14,2,0,1,0,0,0
189000,10,5,0,1,0,0,0
177000,2,2,0,1,0,0,0
270000,20,20,0,1,0,0,0
365000,15,11,1,0,0,0,0
262000,20,1,0,0,0,0,1
132000,2,2,1,0,0,0,0
190000,5,3,0,1,0,0,0
228000,7,7,0,1,0,0,0
140000,3,0,0,1,0,0,0
194000,3,3,0,1,0,0,0
150000,5,5,0,1,0,0,0
268000,4,0,1,0,0,0,0
587000,12,10,0,1,0,0,0
300000,15,1,1,0,0,0,0
198000,2,2,0,1,0,0,0
420000,4,0,1,0,0,0,0
280000,8,6,1,0,0,0,0
250000,5,2,1,0,0,0,0
320000,1,0,0,1,0,0,0
121000,8,8,1,0,0,0,0
120000,5,5,0,1,0,0,0
427000,3,3,0,0,1,0,0
282000,14,0,0,1,0,0,0
140000,4,0,0,1,0,0,0
202000,6,4,1,0,0,0,0
205000,2,0,1,0,0,0,0
250000,5,3,1,0,0,0,0
350000,6,1,1,0,0,0,0
315000,20,15,1,0,0,0,0
172000,8,4,1,0,0,0,0
313000,12,4,1,0,0,0,0
133000,3,0,0,1,0,0,0
348000,14,3,0,1,0,0,0
400000,21,7,1,0,0,0,0
120000,1,0,1,0,0,0,0
200000,2,0,1,0,0,0,0
200000,2,0,1,0,0,0,0
282000,10,0,0,1,0,0,0
178000,1,0,0,0,0,0,1
165000,2,2,1,0,0,0,0
209000,7,7,0,1,0,0,0
262000,15,6,0,1,0,0,0
140000,5,0,0,1,0,0,0
205000,5,0,1,0,0,0,0
424000,11,2,1,0,0,0,0
103000,2,2,0,1,0,0,0
195000,17,4,0,1,0,0,0
132000,1,1,1,0,0,0,0
235000,4,0,0,1,0,0,0
160000,16,16,1,0,0,0,0
120000,10,10,0,1,0,0,0
174000,2,0,1,0,0,0,0
550000,7,0,1,0,0,0,0
400000,15,1,1,0,0,0,0
223000,5,0,1,0,0,0,0
160000,1,1,1,0,0,0,0
381000,10,4,1,0,0,0,0
240000,15,5,0,1,0,0,0
170000,2,2,1,0,0,0,0
181000,6,4,1,0,0,0,0
150000,5,3,1,0,0,0,0
150000,3,1,1,0,0,0,0
364000,10,1,1,0,0,0,0
240000,4,3,0,1,0,0,0
372000,20,2,1,0,0,0,0
205000,7,1,1,0,0,0,0
275000,11,3,1,0,0,0,0
255000,4,0,0,1,0,0,0
280000,3,3,1,0,0,0,0
200000,15,5,0,1,0,0,0
205000,10,4,0,1,0,0,0
158000,1,1,0,1,0,0,0
428000,5,5,1,0,0,0,0
441000,7,0,1,0,0,0,0
220000,9,5,0,1,0,0,0
575000,17,13,1,0,0,0,0
180000,2,0,1,0,0,0,0
196000,5,3,1,0,0,0,0
196000,10,3,1,0,0,0,0
308000,11,11,0,1,0,0,0
445000,13,5,0,1,0,0,0
166000,2,2,0,1,0,0,0
215000,10,4,0,1,0,0,0
133000,2,1,0,1,0,0,0
172000,3,3,0,1,0,0,0
410000,6,0,1,0,0,0,0
235000,13,13,1,0,0,0,0
280000,5,5,1,0,0,0,0
633000,15,2,1,0,0,0,0
176000,1,0,1,0,0,0,0
166000,2,2,0,1,0,0,0
284000,4,0,0,1,0,0,0
170000,14,14,0,1,0,0,0
238000,5,2,1,0,0,0,0
260000,11,4,1,0,0,0,0
335000,18,0,1,0,0,0,0
181000,4,0,1,0,0,0,0
259000,4,0,1,0,0,0,0
230000,6,0,0,1,0,0,0
149000,5,2,1,0,0,0,0
300000,20,14,1,0,0,0,0
165000,0,0,0,1,0,0,0
105000,3,3,0,1,0,0,0
100000,0,0,0,1,0,0,0
200000,1,0,1,0,0,0,0
475000,13,0,0,1,0,0,0
202000,6,6,0,1,0,0,0
498000,17,17,0,1,0,0,0
271000,4,4,0,1,0,0,0
395000,6,0,0,1,0,0,0
211000,7,7,0,1,0,0,0
290000,10,6,0,1,0,0,0
343000,11,11,0,1,0,0,0
290000,4,4,1,0,0,0,0
232000,5,2,0,1,0,0,0
196000,2,2,0,1,0,0,0
216000,2,2,0,1,0,0,0
560000,16,13,0,0,0,1,0
185000,27,5,0,1,0,0,0
222000,24,17,0,1,0,0,0
510000,15,10,1,0,0,0,0
127000,1,1,0,1,0,0,0
290000,7,1,1,0,0,0,0
285000,12,2,1,0,0,0,0
144000,2,2,1,0,0,0,0
222000,4,4,1,0,0,0,0
470000,35,20,1,0,0,0,0
185000,2,2,0,1,0,0,0
400000,13,6,1,0,0,0,0
480000,10,7,1,0,0,0,0
193000,3,0,1,0,0,0,0
173000,4,1,1,0,0,0,0
189000,0,0,0,0,1,0,0
172000,4,4,1,0,0,0,0
285000,6,1,0,1,0,0,0
237000,13,6,1,0,0,0,0
204000,7,2,0,1,0,0,0
280000,7,3,0,1,0,0,0
210000,11,11,1,0,0,0,0
170000,7,7,1,0,0,0,0
298000,3,2,1,0,0,0,0
101000,2,2,0,1,0,0,0
242000,20,1,0,0,0,0,1
210000,5,5,0,1,0,0,0
177000,5,1,0,1,0,0,0
270000,6,2,0,1,0,0,0
160000,2,2,0,1,0,0,0
175000,8,1,0,1,0,0,0
161000,2,0,0,1,0,0,0
180000,13,6,0,1,0,0,0
251000,3,0,0,1,0,0,0
222000,11,11,0,1,0,0,0
270000,12,7,1,0,0,0,0
189000,5,0,1,0,0,0,0
216000,4,4,1,0,0,0,0
242000,10,3,0,1,0,0,0
298000,7,4,0,1,0,0,0
320000,5,3,0,0,1,0,0
180000,3,0,1,0,0,0,0
171000,5,1,1,0,0,0,0
262000,7,2,1,0,0,0,0
190000,1,1,1,0,0,0,0
220000,5,1,1,0,0,0,0
392000,11,0,1,0,0,0,0
391000,10,0,0,1,0,0,0
410000,10,0,1,0,0,0,0
440000,10,0,1,0,0,0,0
140000,2,2,1,0,0,0,0
450000,16,0,0,1,0,0,0
171000,0,0,1,0,0,0,0
260000,14,6,1,0,0,0,0
312000,5,3,1,0,0,0,0
209000,6,0,1,0,0,0,0
191000,10,10,0,1,0,0,0
151000,2,2,0,1,0,0,0
150000,0,0,0,0,0,1,0
193000,19,8,1,0,0,0,0
400000,24,11,0,1,0,0,0
178000,4,2,1,0,0,0,0
400000,15,8,0,1,0,0,0
193000,3,3,0,0,1,0,0
299000,3,3,0,1,0,0,0
231000,10,3,1,0,0,0,0
200000,5,2,1,0,0,0,0
210000,12,1,1,0,0,0,0
305000,5,5,1,0,0,0,0
530000,17,13,0,1,0,0,0
180000,1,0,0,1,0,0,0
255000,20,2,0,1,0,0,0
300000,4,1,0,1,0,0,0
165000,3,0,0,0,1,0,0
342000,12,7,0,1,0,0,0
200000,3,3,0,1,0,0,0
270000,5,4,1,0,0,0,0
87000,2,2,0,1,0,0,0
256000,9,6,1,0,0,0,0
215000,7,7,0,1,0,0,0
347000,7,0,0,1,0,0,0
213000,1,0,1,0,0,0,0
165000,0,0,0,1,0,0,0
194000,5,3,0,1,0,0,0
367000,14,0,0,1,0,0,0
170000,6,1,1,0,0,0,0
230000,5,1,1,0,0,0,0
190000,10,0,1,0,0,0,0
227000,20,5,0,1,0,0,0
765000,20,20,0,1,0,0,0
220000,2,0,1,0,0,0,0
310000,10,0,0,1,0,0,0
330000,8,3,0,1,0,0,0
170000,1,1,0,1,0,0,0
340000,15,4,0,1,0,0,0
505000,8,8,0,1,0,0,0
180000,2,1,1,0,0,0,0
225000,7,2,1,0,0,0,0
340000,6,4,0,1,0,0,0
540000,20,4,0,1,0,0,0
250000,7,5,1,0,0,0,0
218000,15,12,0,1,0,0,0
143000,2,1,1,0,0,0,0
561000,8,2,0,1,0,0,0
240000,18,14,0,1,0,0,0
173000,2,0,1,0,0,0,0
190000,9,2,0,1,0,0,0
360000,12,5,1,0,0,0,0
215000,2,0,0,1,0,0,0
180000,2,0,0,1,0,0,0
240000,5,5,1,0,0,0,0
210000,4,4,0,1,0,0,0
138000,5,2,0,1,0,0,0
390000,9,1,1,0,0,0,0
150000,0,0,1,0,0,0,0
240000,11,1,0,1,0,0,0
250000,20,0,1,0,0,0,0
275000,10,2,0,1,0,0,0
180000,5,0,0,1,0,0,0
425000,12,0,1,0,0,0,0
176000,3,0,1,0,0,0,0
187000,2,0,0,1,0,0,0
100000,0,0,1,0,0,0,0
230000,5,0,0,1,0,0,0
397000,25,9,1,0,0,0,0
401000,6,0,0,1,0,0,0
210000,5,3,1,0,0,0,0
322000,27,14,0,1,0,0,0
170000,3,3,0,1,0,0,0
336000,16,1,1,0,0,0,0
325000,7,6,0,1,0,0,0
220000,6,2,0,1,0,0,0
306000,9,1,1,0,0,0,0
210000,2,0,1,0,0,0,0
190000,8,4,1,0,0,0,0
193000,10,8,0,1,0,0,0
173000,2,0,0,1,0,0,0
500000,12,3,0,0,0,1,0
173000,5,1,0,1,0,0,0
1105000,21,11,1,0,0,0,0
175000,1,0,0,1,0,0,0
273000,13,1,0,1,0,0,0
346000,5,1,1,0,0,0,0
210000,2,0,1,0,0,0,0
411000,4,1,0,0,1,0,0
153000,5,5,0,1,0,0,0
250000,9,0,0,1,0,0,0
370000,11,6,1,0,0,0,0
127000,1,1,0,1,0,0,0
130000,1,1,0,1,0,0,0
155000,3,3,0,1,0,0,0
303000,32,0,1,0,0,0,0
215000,10,4,0,1,0,0,0
360000,10,2,0,1,0,0,0
397000,10,2,0,1,0,0,0
255000,3,3,0,1,0,0,0
182000,7,3,1,0,0,0,0
176000,3,0,1,0,0,0,0
367000,10,3,0,1,0,0,0
160000,1,0,0,1,0,0,0
174000,4,0,1,0,0,0,0
144000,0,0,0,1,0,0,0
190000,10,1,1,0,0,0,0
165000,2,2,1,0,0,0,0
152000,4,1,1,0,0,0,0
173000,0,0,0,1,0,0,0
210000,6,6,0,1,0,0,0
245000,22,1,0,1,0,0,0
333000,20,17,1,0,0,0,0
201000,12,1,1,0,0,0,0
391000,9,0,0,0,0,1,0
175000,5,2,0,1,0,0,0
290000,15,9,1,0,0,0,0
193000,6,4,0,0,1,0,0
210000,12,9,1,0,0,0,0
309000,10,8,0,1,0,0,0
242000,8,6,0,1,0,0,0
179000,6,5,1,0,0,0,0
296000,6,6,1,0,0,0,0
140000,4,2,0,1,0,0,0
310000,13,12,0,1,0,0,0
231000,20,11,0,1,0,0,0
278000,3,0,1,0,0,0,0
320000,13,0,0,0,1,0,0
265000,2,2,0,1,0,0,0
173000,2,2,0,1,0,0,0
254000,15,10,0,1,0,0,0
140000,4,4,0,1,0,0,0
228000,6,4,1,0,0,0,0
160000,20,1,1,0,0,0,0
168000,1,1,0,1,0,0,0
165000,4,4,0,1,0,0,0
202000,4,2,1,0,0,0,0
419000,11,2,1,0,0,0,0
222000,8,0,0,1,0,0,0
218000,0,0,1,0,0,0,0
220000,4,4,0,1,0,0,0
202000,12,12,0,1,0,0,0
350000,14,4,1,0,0,0,0
180000,3,3,0,1,0,0,0
250000,8,8,1,0,0,0,0
178000,5,0,1,0,0,0,0
655000,15,0,0,1,0,0,0
246000,9,0,1,0,0,0,0
422000,8,5,1,0,0,0,0
208000,5,2,0,1,0,0,0
192000,4,3,1,0,0,0,0
160000,1,1,0,1,0,0,0
300000,16,7,1,0,0,0,0
228000,4,0,1,0,0,0,0
450000,11,4,1,0,0,0,0
360000,11,10,1,0,0,0,0
199000,5,2,1,0,0,0,0
320000,8,8,1,0,0,0,0
155000,5,0,1,0,0,0,0
737000,14,0,1,0,0,0,0
187000,7,0,0,1,0,0,0
166000,4,0,0,1,0,0,0
340000,2,0,0,1,0,0,0
288000,6,0,1,0,0,0,0
418000,12,11,0,1,0,0,0
200000,14,9,0,1,0,0,0
140000,0,0,1,0,0,0,0
231000,2,2,1,0,0,0,0
365000,5,2,0,1,0,0,0
201000,10,9,0,1,0,0,0
201000,11,9,0,1,0,0,0
575000,23,0,0,1,0,0,0
210000,3,3,0,1,0,0,0
250000,4,0,0,1,0,0,0
242000,4,0,0,1,0,0,0
245000,4,0,0,1,0,0,0
520000,10,8,0,1,0,0,0
482000,7,0,1,0,0,0,0
156000,12,1,1,0,0,0,0
246000,4,0,0,1,0,0,0
214000,2,0,1,0,0,0,0
140000,1,1,1,0,0,0,0
360000,10,4,0,0,1,0,0
214000,6,0,0,1,0,0,0
165000,0,0,0,1,0,0,0
242000,2,2,0,1,0,0,0
200000,3,3,0,1,0,0,0
469000,26,21,0,1,0,0,0
211000,12,5,0,0,0,1,0
550000,15,4,0,1,0,0,0
197000,12,0,0,1,0,0,0
220000,5,5,0,1,0,0,0
205000,2,0,0,1,0,0,0
280000,13,2,1,0,0,0,0
180000,2,2,1,0,0,0,0
260000,6,6,1,0,0,0,0
205000,6,5,0,1,0,0,0
129000,0,0,0,1,0,0,0
250000,6,3,0,1,0,0,0
242000,4,0,0,1,0,0,0
293000,4,0,0,1,0,0,0
272000,4,0,0,1,0,0,0
284000,4,0,0,1,0,0,0
180000,3,0,0,1,0,0,0
323000,20,4,0,1,0,0,0
186000,3,2,1,0,0,0,0
162000,0,0,1,0,0,0,0
159000,2,0,1,0,0,0,0
147000,4,0,0,1,0,0,0
360000,13,6,0,1,0,0,0
310000,6,6,0,1,0,0,0
155000,1,1,1,0,0,0,0
315000,6,1,0,0,1,0,0
242000,4,2,0,1,0,0,0
160000,10,1,0,1,0,0,0
250000,15,7,1,0,0,0,0
533000,10,6,1,0,0,0,0
296000,24,3,0,0,0,0,1
173000,4,4,1,0,0,0,0
252000,4,0,1,0,0,0,0
185000,5,5,0,1,0,0,0
190000,2,2,1,0,0,0,0
196000,4,0,1,0,0,0,0
161000,2,0,1,0,0,0,0
151000,6,6,0,1,0,0,0
321000,12,0,1,0,0,0,0
192000,0,0,1,0,0,0,0
182000,5,1,1,0,0,0,0
163000,0,0,1,0,0,0,0
200000,5,0,1,0,0,0,0
287000,6,2,1,0,0,0,0
223000,3,0,1,0,0,0,0
225000,18,5,0,0,1,0,0
215000,6,6,0,1,0,0,0
159000,1,0,1,0,0,0,0
238000,21,8,0,1,0,0,0
205000,3,1,1,0,0,0,0
180000,2,1,0,1,0,0,0
244000,18,13,0,1,0,0,0
199000,20,18,1,0,0,0,0
290000,10,1,0,1,0,0,0
180000,7,4,1,0,0,0,0
212000,5,0,0,1,0,0,0
287000,9,5,1,0,0,0,0
446000,9,8,0,1,0,0,0
220000,15,5,0,1,0,0,0
215000,5,5,0,1,0,0,0
196000,1,1,1,0,0,0,0
160000,5,5,0,1,0,0,0
250000,5,5,0,1,0,0,0
140000,8,2,0,0,0,0,1
170000,1,1,1,0,0,0,0
223000,8,3,0,1,0,0,0
190000,4,0,1,0,0,0,0
254000,15,4,0,0,1,0,0
246000,0,0,0,1,0,0,0
276000,2,0,0,1,0,0,0
650000,15,1,0,0,0,0,1
181000,4,0,1,0,0,0,0
240000,10,0,1,0,0,0,0
220000,16,4,0,1,0,0,0
203000,4,1,1,0,0,0,0
230000,10,1,1,0,0,0,0
236000,3,0,0,1,0,0,0
405000,5,0,0,1,0,0,0
177000,3,0,0,1,0,0,0
243000,12,1,0,0,1,0,0
160000,7,0,1,0,0,0,0
135000,0,0,0,1,0,0,0
171000,1,1,1,0,0,0,0
165000,5,5,0,1,0,0,0
182000,15,11,1,0,0,0,0
195000,2,0,1,0,0,0,0
178000,19,19,1,0,0,0,0
227000,2,2,1,0,0,0,0
254000,2,2,0,1,0,0,0
224000,5,4,0,1,0,0,0
233000,6,3,0,1,0,0,0
221000,3,2,0,1,0,0,0
276000,2,0,0,1,0,0,0
175000,9,8,0,1,0,0,0
308000,15,4,0,1,0,0,0
180000,5,0,0,1,0,0,0
275000,2,0,1,0,0,0,0
327000,4,0,1,0,0,0,0
180000,3,0,1,0,0,0,0
154000,0,0,0,1,0,0,0
169000,2,1,1,0,0,0,0
199000,9,9,0,1,0,0,0
350000,10,2,1,0,0,0,0
145000,2,2,0,1,0,0,0
246000,15,2,1,0,0,0,0
226000,4,2,1,0,0,0,0
230000,3,0,0,1,0,0,0
279000,3,0,1,0,0,0,0
160000,4,0,1,0,0,0,0
260000,2,2,0,1,0,0,0
152000,1,1,1,0,0,0,0
189000,8,8,0,1,0,0,0
252000,4,0,1,0,0,0,0
211000,0,0,0,1,0,0,0
150000,0,0,0,1,0,0,0
207000,25,4,0,0,0,1,0
276000,16,0,0,1,0,0,0
385000,10,0,1,0,0,0,0
213000,9,4,1,0,0,0,0
383000,13,5,1,0,0,0,0
227000,8,0,0,1,0,0,0
290000,5,5,0,1,0,0,0
173000,3,0,1,0,0,0,0
141000,1,1,0,1,0,0,0
151000,4,4,1,0,0,0,0
297000,7,0,1,0,0,0,0
168000,0,0,1,0,0,0,0
300000,11,2,1,0,0,0,0
173000,2,0,0,1,0,0,0
256000,4,4,0,1,0,0,0
255000,8,4,1,0,0,0,0
191000,6,0,1,0,0,0,0
278000,6,6,0,1,0,0,0
202000,3,0,1,0,0,0,0
176000,3,0,0,1,0,0,0
98000,6,4,1,0,0,0,0
202000,5,0,0,1,0,0,0
193000,2,2,0,1,0,0,0
160000,4,1,1,0,0,0,0
144000,0,0,0,0,1,0,0
386000,10,0,1,0,0,0,0
181000,4,0,1,0,0,0,0
339000,5,0,1,0,0,0,0
246000,5,2,0,0,1,0,0
265000,20,10,1,0,0,0,0
182000,9,4,0,1,0,0,0
457000,8,1,0,1,0,0,0
162000,10,2,0,1,0,0,0
130000,6,0,0,1,0,0,0
199000,2,2,1,0,0,0,0
227000,17,5,1,0,0,0,0
193000,10,6,1,0,0,0,0
277000,10,6,0,1,0,0,0
206000,5,3,1,0,0,0,0
183000,22,10,0,1,0,0,0
320000,4,4,0,1,0,0,0
188000,3,1,1,0,0,0,0
279000,7,3,1,0,0,0,0
185000,2,2,1,0,0,0,0
285000,6,0,1,0,0,0,0
280000,12,4,0,1,0,0,0
278000,8,4,1,0,0,0,0
314000,16,0,1,0,0,0,0
340000,5,1,1,0,0,0,0
206000,0,0,0,0,1,0,0
780000,18,2,0,0,1,0,0
616000,15,0,0,1,0,0,0
267000,10,0,0,1,0,0,0
250000,8,6,0,1,0,0,0
191000,4,2,1,0,0,0,0
213000,5,5,1,0,0,0,0
393000,6,0,1,0,0,0,0
825000,19,0,1,0,0,0,0
150000,4,0,1,0,0,0,0
290000,21,7,1,0,0,0,0
388000,17,3,1,0,0,0,0
320000,9,9,1,0,0,0,0
210000,4,0,1,0,0,0,0
330000,7,0,0,1,0,0,0
219000,5,3,1,0,0,0,0
209000,10,1,1,0,0,0,0
222000,7,0,0,1,0,0,0
267000,8,4,0,1,0,0,0
205000,9,9,1,0,0,0,0
185000,7,4,0,1,0,0,0
240000,4,0,0,1,0,0,0
374000,5,0,0,1,0,0,0
220000,14,5,1,0,0,0,0
210000,1,0,0,1,0,0,0
251000,10,10,0,1,0,0,0
216000,6,1,1,0,0,0,0
256000,8,5,0,1,0,0,0
340000,9,6,1,0,0,0,0
203000,13,0,1,0,0,0,0
231000,12,9,1,0,0,0,0
250000,4,3,0,1,0,0,0
168000,4,4,1,0,0,0,0
290000,14,0,1,0,0,0,0
416000,14,0,1,0,0,0,0
333000,14,0,1,0,0,0,0
150000,3,3,0,1,0,0,0
143000,3,1,1,0,0,0,0
164000,7,7,0,1,0,0,0
200000,8,2,1,0,0,0,0
280000,25,15,1,0,0,0,0
235000,10,4,1,0,0,0,0
190000,10,2,0,0,1,0,0
168000,0,0,0,1,0,0,0
246000,20,15,1,0,0,0,0
168000,1,1,1,0,0,0,0
147000,3,0,0,1,0,0,0
200000,10,6,1,0,0,0,0
254000,15,9,1,0,0,0,0
138000,2,0,0,1,0,0,0
210000,11,1,1,0,0,0,0
324000,7,0,0,1,0,0,0
158000,14,1,0,1,0,0,0
210000,3,3,0,1,0,0,0
163000,5,4,0,1,0,0,0
285000,11,0,0,1,0,0,0
179000,7,7,0,1,0,0,0
188000,5,1,0,1,0,0,0
354000,8,1,1,0,0,0,0
212000,4,3,0,1,0,0,0
220000,20,5,1,0,0,0,0
151000,1,1,0,1,0,0,0
234000,6,6,0,1,0,0,0
213000,3,0,0,1,0,0,0
139000,1,1,1,0,0,0,0
170000,3,1,0,1,0,0,0
280000,3,3,1,0,0,0,0
240000,8,0,1,0,0,0,0
100000,13,13,0,1,0,0,0
324000,18,18,0,1,0,0,0
239000,0,0,1,0,0,0,0
248000,11,2,0,1,0,0,0
290000,10,3,0,0,1,0,0
202000,11,0,1,0,0,0,0
340000,12,1,0,1,0,0,0
218000,0,0,0,1,0,0,0
166000,0,0,0,1,0,0,0
330000,9,4,1,0,0,0,0
210000,12,2,1,0,0,0,0
1098000,12,2,1,0,0,0,0
270000,10,2,1,0,0,0,0
155000,2,2,0,1,0,0,0
232000,13,1,0,1,0,0,0
420000,7,2,1,0,0,0,0
260000,10,5,1,0,0,0,0
153000,1,0,0,1,0,0,0
178000,0,0,0,1,0,0,0
181000,2,0,1,0,0,0,0
151000,1,0,0,1,0,0,0
178000,5,0,0,1,0,0,0
325000,12,7,0,1,0,0,0
287000,8,2,0,1,0,0,0
529000,5,0,1,0,0,0,0
145000,1,1,1,0,0,0,0
160000,2,0,0,1,0,0,0
160000,2,0,0,1,0,0,0
172000,3,3,0,0,1,0,0
172000,4,0,1,0,0,0,0
164000,2,2,0,1,0,0,0
230000,10,0,1,0,0,0,0
370000,9,4,0,0,1,0,0
203000,1,0,0,1,0,0,0
155000,0,0,0,1,0,0,0
504000,10,0,1,0,0,0,0
340000,10,10,0,1,0,0,0
287000,15,2,0,1,0,0,0
395000,7,3,1,0,0,0,0
165000,2,1,0,1,0,0,0
486000,12,1,1,0,0,0,0
204000,2,2,0,1,0,0,0
325000,9,0,1,0,0,0,0
415000,3,1,0,0,1,0,0
375000,15,6,1,0,0,0,0
158000,8,5,1,0,0,0,0
168000,2,0,1,0,0,0,0
172000,0,0,0,1,0,0,0
428000,5,0,1,0,0,0,0
165000,0,0,0,1,0,0,0
255000,9,0,0,1,0,0,0
289000,20,2,1,0,0,0,0
271000,10,0,1,0,0,0,0
153000,0,0,0,1,0,0,0
150000,0,0,0,1,0,0,0
511000,13,1,0,1,0,0,0
192000,4,0,0,1,0,0,0
287000,4,0,1,0,0,0,0
158000,0,0,1,0,0,0,0
335000,9,6,0,1,0,0,0
171000,11,1,1,0,0,0,0
270000,15,5,1,0,0,0,0
196000,10,9,0,1,0,0,0
108000,9,3,1,0,0,0,0
157000,0,0,0,0,0,1,0
450000,20,10,0,0,1,0,0
235000,7,0,1,0,0,0,0
282000,5,1,0,1,0,0,0
409000,5,0,0,1,0,0,0
153000,1,0,0,1,0,0,0
340000,15,4,0,1,0,0,0
123000,1,1,0,1,0,0,0
277000,2,0,0,1,0,0,0
196000,10,3,0,0,0,1,0
280000,12,5,0,1,0,0,0
215000,6,0,0,1,0,0,0
168000,1,0,0,1,0,0,0
260000,7,0,1,0,0,0,0
180000,1,0,0,1,0,0,0
94000,3,1,0,1,0,0,0
420000,20,2,0,1,0,0,0
290000,13,6,1,0,0,0,0
371000,18,0,0,0,1,0,0
215000,18,5,0,0,1,0,0
334000,13,13,0,1,0,0,0
238000,4,2,1,0,0,0,0
265000,3,0,0,1,0,0,0
271000,4,2,1,0,0,0,0
200000,7,0,1,0,0,0,0
224000,6,0,1,0,0,0,0
180000,4,2,1,0,0,0,0
139000,0,0,0,1,0,0,0
244000,3,0,1,0,0,0,0
267000,12,5,0,1,0,0,0
199000,7,0,1,0,0,0,0
390000,7,0,1,0,0,0,0
550000,6,2,1,0,0,0,0
132000,1,1,0,0,1,0,0
174000,1,1,0,1,0,0,0
179000,2,1,1,0,0,0,0
280000,13,5,1,0,0,0,0
163000,10,10,0,0,0,0,1
420000,5,5,0,1,0,0,0
191000,8,6,0,1,0,0,0
415000,11,4,0,1,0,0,0
409000,5,2,0,0,0,1,0
273000,15,5,1,0,0,0,0
240000,3,1,1,0,0,0,0
169000,5,5,0,1,0,0,0
165000,0,0,1,0,0,0,0
620000,20,8,1,0,0,0,0
400000,5,0,0,1,0,0,0
315000,10,4,1,0,0,0,0
162000,0,0,1,0,0,0,0
237000,8,3,1,0,0,0,0
168000,0,0,0,1,0,0,0
282000,9,5,1,0,0,0,0
350000,20,9,0,1,0,0,0
320000,7,4,1,0,0,0,0
103000,3,3,0,1,0,0,0
226000,5,3,0,1,0,0,0
228000,16,2,0,1,0,0,0
172000,7,7,1,0,0,0,0
169000,5,3,1,0,0,0,0
480000,16,7,1,0,0,0,0
250000,8,8,1,0,0,0,0
73000,0,0,0,1,0,0,0
980000,18,9,1,0,0,0,0
450000,17,0,1,0,0,0,0
300000,16,4,1,0,0,0,0
145000,4,3,1,0,0,0,0
313000,5,0,1,0,0,0,0
240000,10,0,1,0,0,0,0
303000,2,2,1,0,0,0,0
222000,17,13,1,0,0,0,0
153000,0,0,1,0,0,0,0
412000,10,1,1,0,0,0,0
205000,17,5,1,0,0,0,0
440000,10,5,1,0,0,0,0
433000,16,14,0,1,0,0,0
204000,1,1,0,1,0,0,0
155000,1,1,0,1,0,0,0
460000,9,9,1,0,0,0,0
269000,7,0,1,0,0,0,0
355000,12,12,0,1,0,0,0
106000,0,0,0,1,0,0,0
300000,13,4,0,1,0,0,0
158000,3,0,1,0,0,0,0
181000,1,0,0,1,0,0,0
171000,2,2,1,0,0,0,0
255000,8,1,1,0,0,0,0
241000,10,6,0,1,0,0,0
252000,10,3,0,1,0,0,0
222000,4,4,1,0,0,0,0
395000,10,0,1,0,0,0,0
180000,4,2,0,1,0,0,0
173000,8,1,1,0,0,0,0
125000,0,0,0,1,0,0,0
323000,3,0,0,1,0,0,0
298000,25,6,0,1,0,0,0
162000,3,1,0,1,0,0,0
195000,8,6,1,0,0,0,0
180000,4,2,1,0,0,0,0
218000,10,5,1,0,0,0,0
224000,12,12,0,1,0,0,0
318000,5,0,0,1,0,0,0
281000,3,0,1,0,0,0,0
243000,5,2,0,1,0,0,0
160000,1,1,1,0,0,0,0
100000,5,2,0,1,0,0,0
287000,14,4,1,0,0,0,0
378000,15,9,0,1,0,0,0
194000,4,3,1,0,0,0,0
153000,10,3,0,1,0,0,0
193000,9,2,1,0,0,0,0
176000,1,1,0,1,0,0,0
141000,0,0,0,1,0,0,0
152000,0,0,0,1,0,0,0
223000,7,1,1,0,0,0,0
251000,0,0,0,0,1,0,0
184000,2,0,1,0,0,0,0
187000,8,2,1,0,0,0,0
175000,3,0,0,1,0,0,0
133000,3,2,0,0,0,1,0
165000,3,1,0,1,0,0,0
320000,10,7,1,0,0,0,0
142000,3,0,0,1,0,0,0
182000,3,3,1,0,0,0,0
138000,2,0,0,1,0,0,0
171000,6,6,0,1,0,0,0
168000,10,5,1,0,0,0,0
350000,10,0,0,1,0,0,0
181000,3,3,0,1,0,0,0
130000,3,0,0,0,0,1,0
157000,0,0,0,1,0,0,0
193000,7,4,0,1,0,0,0
289000,11,7,0,1,0,0,0
141000,1,0,1,0,0,0,0
219000,5,0,0,1,0,0,0
168000,1,0,0,1,0,0,0
157000,0,0,0,1,0,0,0
150000,0,0,1,0,0,0,0
155000,0,0,1,0,0,0,0
212000,8,2,1,0,0,0,0
475000,17,10,1,0,0,0,0
160000,3,0,1,0,0,0,0
245000,0,0,0,1,0,0,0
259000,13,0,1,0,0,0,0
397000,11,0,1,0,0,0,0
174000,0,0,0,1,0,0,0
152000,3,3,0,1,0,0,0
266000,15,15,1,0,0,0,0
172000,2,2,1,0,0,0,0
210000,3,3,0,1,0,0,0
183000,0,0,1,0,0,0,0
162000,1,0,0,1,0,0,0
356000,13,13,0,1,0,0,0
269000,9,9,1,0,0,0,0
337000,17,17,1,0,0,0,0
192000,15,1,0,1,0,0,0
178000,3,0,0,1,0,0,0
171000,5,3,0,1,0,0,0
157000,0,0,1,0,0,0,0
177000,1,1,0,1,0,0,0
1407000,22,5,1,0,0,0,0
1733000,23,6,0,1,0,0,0
