totalyearlycompensation,yearsofexperience,yearsatcompany,Masters_Degree,Bachelors_Degree,Doctorate_Degree,Highschool,Some_College
120000,4,4,1,0,0,0,0
222000,11,1,1,0,0,0,0
220000,8,8,0,0,1,0,0
271000,10,1,1,0,1,0,0
142000,9,9,1,0,0,0,0
277000,24,14,1,0,0,0,0
278000,22,22,1,0,0,0,0
110000,4,4,1,0,0,0,0
190000,5,5,0,0,1,0,0
144000,3,3,1,0,0,0,0
155000,2,2,1,0,0,0,0
158000,7,3,0,0,1,0,0
217000,3,0,1,0,0,0,0
130000,25,15,1,0,0,0,0
150000,18,4,1,0,0,0,0
133000,4,4,1,0,0,0,0
245000,9,0,1,0,0,0,0
150000,7,4,1,0,0,0,0
166000,8,8,1,0,0,0,0
150000,6,6,0,0,1,0,0
180000,5,2,1,0,0,0,0
100000,2,3,1,0,0,0,0
140000,15,10,1,0,0,0,0
163000,2,2,0,0,1,0,0
112000,0,2,1,0,0,0,0
300000,10,0,0,0,1,0,0
335000,13,4,1,0,1,0,0
110000,0,0,1,0,0,0,0
170000,10,10,1,0,0,0,0
298000,20,9,1,0,0,0,0
230000,10,10,0,0,1,0,0
245000,5,3,0,0,1,0,0
121000,1,1,1,0,0,0,0
269000,15,15,0,0,1,0,0
236000,20,2,1,0,0,0,0
173000,7,7,0,0,1,0,0
716000,22,22,1,0,0,0,0
105000,2,2,1,0,0,0,0
103000,0,0,1,0,0,0,0
110000,4,4,1,0,0,0,0
137000,4,4,1,0,0,0,0
248000,10,0,1,0,0,0,0
147000,1,1,0,0,1,0,0
154000,13,4,1,0,0,0,0
202000,6,4,0,1,0,0,0
257000,13,6,0,1,0,0,0
190000,15,15,1,0,0,0,0
198000,23,21,1,0,0,0,0
260000,9,9,0,0,1,0,0
162000,12,12,1,0,0,0,0
115000,0,0,0,1,0,0,0
160000,20,7,1,0,0,0,0
360000,29,25,0,1,0,0,0
170000,2,0,1,0,0,0,0
345000,20,10,1,0,0,0,0
161000,7,0,1,0,0,0,0
209000,9,2,0,0,1,0,0
132000,3,1,0,1,0,0,0
272000,17,10,1,0,0,0,0
150000,10,4,0,1,0,0,0
285000,23,7,0,0,0,1,0
280000,20,2,1,0,0,0,0
306000,15,6,0,0,1,0,0
207000,13,7,0,1,0,0,0
365000,20,3,0,1,0,0,0
155000,13,5,1,0,0,0,0
378000,25,0,1,0,0,0,0
138000,7,3,0,1,0,0,0
180000,15,15,1,0,0,0,0
165000,15,15,1,0,0,0,0
210000,12,8,1,0,0,0,0
296000,18,10,1,0,0,0,0
125000,10,8,1,0,0,0,0
170000,15,15,1,0,0,0,0
160000,5,5,0,0,1,0,0
178000,35,23,0,1,0,0,0
110000,2,2,0,0,1,0,0
132000,6,6,1,0,0,0,0
140000,9,9,1,0,0,0,0
125000,13,8,0,1,0,0,0
135000,5,5,1,0,0,0,0
135000,15,7,1,0,0,0,0
120000,13,8,0,1,0,0,0
255000,16,0,0,1,0,0,0
195000,33,5,0,1,0,0,0
300000,18,18,1,0,0,0,0
268000,13,13,0,0,1,0,0
225000,27,23,1,0,0,0,0
151000,9,8,1,0,0,0,0
135000,15,10,1,0,0,0,0
122000,2,0,0,1,0,0,0
247000,25,4,1,0,0,0,0
110000,4,4,1,0,0,0,0
208000,3,1,1,0,0,0,0
205000,9,2,0,1,0,0,0
180000,6,2,0,1,0,0,0
334000,20,2,1,0,0,0,0
230000,17,15,0,1,0,0,0
135000,3,3,0,1,0,0,0
135000,7,6,1,0,0,0,0
172000,5,5,0,0,1,0,0
185000,25,25,0,1,0,0,0
99000,1,1,0,1,0,0,0
164000,8,0,1,0,0,0,0
150000,3,0,1,0,0,0,0
135000,10,2,0,1,0,0,0
262000,15,0,0,1,0,0,0
132000,2,1,0,1,0,0,0
193000,33,5,0,1,0,0,0
218000,10,10,1,0,0,0,0
234000,20,20,1,0,0,0,0
140000,9,9,0,1,0,0,0
115000,2,0,0,0,1,0,0
138000,9,4,0,1,0,0,0
172000,19,17,1,0,0,0,0
700000,28,23,1,0,0,0,0
255000,14,14,1,0,0,0,0
199000,5,2,0,1,0,0,0
100000,15,15,0,1,0,0,0
304000,16,4,1,0,0,0,0
146000,11,8,1,0,0,0,0
158000,8,8,1,0,0,0,0
420000,30,25,0,1,0,0,0
165000,2,2,0,0,1,0,0
120000,5,4,0,1,0,0,0
191000,24,24,1,0,0,0,0
262000,7,3,0,1,0,0,0
324000,25,25,0,1,0,0,0
260000,13,1,0,0,1,0,0
221000,20,14,0,0,0,0,1
150000,7,5,1,0,0,0,0
184000,3,0,0,0,1,0,0
185000,20,3,1,0,0,0,0
90000,2,1,0,1,0,0,0
125000,1,1,1,0,0,0,0
169000,2,0,1,0,0,0,0
320000,20,20,1,0,0,0,0
401000,15,0,0,1,0,0,0
153000,10,4,0,0,0,0,1
180000,1,0,1,0,0,0,0
150000,4,2,0,1,0,0,0
179000,9,9,1,0,0,0,0
142000,4,0,1,0,0,0,0
200000,6,6,0,0,1,0,0
160000,4,4,0,0,1,0,0
177000,9,5,1,0,0,0,0
140000,8,8,0,1,0,0,0
143000,11,9,0,1,0,0,0
247000,39,20,1,0,0,0,0
161000,4,2,0,0,0,1,0
170000,9,9,1,0,0,0,0
111000,0,0,0,1,0,0,0
190000,20,10,1,0,0,0,0
125000,3,0,1,0,0,0,0
166000,4,4,0,0,1,0,0
116000,2,4,0,1,0,0,0
727000,28,23,1,0,0,0,0
152000,4,0,1,0,0,0,0
165000,3,3,0,0,1,0,0
93000,4,2,0,1,0,0,0
107000,4,1,0,0,0,0,1
104000,9,2,0,1,0,0,0
225000,20,20,1,0,0,0,0
190000,16,6,0,1,0,0,0
215000,12,3,0,1,0,0,0
292000,20,1,1,0,0,0,0
239000,6,4,0,1,0,0,0
138000,2,2,0,1,0,0,0
180000,6,3,0,1,0,0,0
145000,13,7,0,1,0,0,0
160000,11,11,1,0,0,0,0
230000,8,8,0,0,1,0,0
187000,7,7,0,0,1,0,0
180000,12,3,0,1,0,0,0
143000,3,3,0,0,1,0,0
195000,19,19,1,0,0,0,0
93000,4,3,0,1,0,0,0
202000,7,7,0,0,1,0,0
170000,4,4,0,0,1,0,0
234000,10,10,0,1,0,0,0
173000,5,5,0,0,1,0,0
127000,4,4,1,0,0,0,0
94000,14,9,0,1,0,0,0
118000,3,3,1,0,0,0,0
174000,5,5,0,1,0,0,0
130000,9,9,1,0,0,0,0
169000,2,2,0,0,1,0,0
99000,1,1,0,1,0,0,0
146000,13,13,0,1,0,0,0
195000,12,12,0,0,1,0,0
99000,9,9,1,0,0,0,0
190000,23,3,1,0,0,0,0
237000,13,5,0,1,0,0,0
107000,5,5,0,1,0,0,0
197000,4,4,0,0,1,0,0
220000,6,5,0,1,0,0,0
215000,8,1,1,0,0,0,0
188000,9,5,0,1,0,0,0
205000,10,8,0,1,0,0,0
171000,2,2,0,0,1,0,0
266000,22,20,1,0,0,0,0
187000,3,2,0,1,0,0,0
171000,2,2,0,0,1,0,0
181000,16,5,0,1,0,0,0
140000,4,3,0,1,0,0,0
127000,4,4,1,0,0,0,0
384000,21,19,1,0,0,0,0
164000,5,4,1,0,0,0,0
121000,2,0,1,0,0,0,0
80000,0,0,0,1,0,0,0
190000,16,6,0,1,0,0,0
187000,26,3,0,1,0,0,0
236000,8,8,0,0,1,0,0
253000,8,2,0,1,0,0,0
200000,3,3,0,1,0,0,0
168000,5,5,1,0,0,0,0
179000,8,8,1,0,0,0,0
94000,3,1,0,1,0,0,0
375000,15,0,0,0,0,0,1
365000,15,3,0,0,0,0,1
220000,12,12,0,0,1,0,0
136000,2,2,1,0,0,0,0
142000,8,5,1,0,0,0,0
153000,10,10,0,1,0,0,0
172000,4,0,1,0,0,0,0
239000,11,11,0,0,1,0,0
135000,5,5,1,0,0,0,0
206000,9,9,0,0,1,0,0
139000,7,5,1,0,0,0,0
194000,15,3,0,0,0,1,0
198000,9,0,0,0,1,0,0
80000,11,11,0,1,0,0,0
155000,8,0,0,0,0,0,1
183000,11,4,0,1,0,0,0
120000,5,4,0,1,0,0,0
142000,5,3,1,0,0,0,0
406000,21,7,1,0,0,0,0
202000,7,7,0,0,1,0,0
175000,7,6,0,1,0,0,0
169000,8,2,0,1,0,0,0
107000,13,13,0,0,0,1,0
158000,11,7,1,0,0,0,0
147000,6,5,1,0,0,0,0
159000,11,7,1,0,0,0,0
264000,17,2,0,1,0,0,0
188000,7,3,0,1,0,0,0
159000,14,0,1,0,0,0,0
199000,4,0,1,0,0,0,0
330000,10,0,1,0,0,0,0
158000,11,8,1,0,0,0,0
121000,4,4,1,0,0,0,0
127000,5,5,1,0,0,0,0
198000,11,0,0,1,0,0,0
202000,8,8,0,0,1,0,0
257000,24,24,1,0,0,0,0
167000,5,5,1,0,0,0,0
245000,8,1,1,0,0,0,0
143000,1,1,1,0,0,0,0
168000,15,5,0,1,0,0,0
183000,0,0,0,0,1,0,0
114000,8,1,0,1,0,0,0
146000,5,1,1,0,0,0,0
91000,15,10,0,1,0,0,0
228000,9,0,1,0,0,0,0
107000,7,2,0,0,0,0,1
140000,10,3,0,1,0,0,0
152000,3,2,0,0,1,0,0
159000,3,3,0,0,1,0,0
199000,8,1,1,0,0,0,0
157000,3,0,1,0,0,0,0
127000,11,11,1,0,0,0,0
292000,18,11,1,0,0,0,0
151000,9,7,1,0,0,0,0
185000,13,7,1,0,0,0,0
112000,3,3,0,1,0,0,0
139000,0,0,1,0,0,0,0
112000,21,9,0,1,0,0,0
200000,13,13,1,0,0,0,0
146000,3,2,1,0,0,0,0
215000,8,8,0,0,1,0,0
262000,12,3,1,0,0,0,0
120000,1,0,1,0,0,0,0
