totalyearlycompensation,yearsofexperience,yearsatcompany,Masters_Degree,Bachelors_Degree,Doctorate_Degree,Highschool,Some_College
100000,19,3,1,0,0,0,0
100000,19,3,1,0,0,0,0
102000,7,1,1,0,0,0,0
100000,2,3,1,0,0,0,0
121000,2,2,1,0,0,0,0
110000,3,0,1,0,0,0,0
91000,5,5,1,0,0,0,0
110000,2,1,1,0,0,0,0
123000,15,15,0,1,0,0,0
155000,8,0,1,0,0,0,0
303000,9,0,1,0,0,0,0
105000,4,2,0,1,0,0,0
72000,13,1,0,1,0,0,0
97000,2,2,0,1,0,0,0
210000,21,15,0,0,0,0,1
108000,5,3,1,0,0,0,0
113000,5,3,1,0,0,0,0
130000,9,6,0,1,0,0,0
234000,17,2,1,0,0,0,0
115000,2,1,0,1,0,0,0
150000,8,0,0,0,0,1,0
121000,8,4,1,0,0,0,0
107000,1,0,0,1,0,0,0
101000,3,0,1,0,0,0,0
130000,12,12,1,0,0,0,0
152000,5,0,0,1,0,0,0
85000,0,0,0,1,0,0,0
57000,3,3,1,0,0,0,0
84000,1,1,0,1,0,0,0
70000,0,0,0,1,0,0,0
80000,1,1,0,1,0,0,0
102000,30,25,0,0,0,0,1
130000,10,8,0,1,0,0,0
251000,20,0,1,0,0,0,0
85000,8,8,0,1,0,0,0
120000,2,1,1,0,0,0,0
118000,10,2,0,0,0,1,0
236000,10,3,0,1,0,0,0
99000,10,9,1,0,0,0,0
86000,10,10,0,1,0,0,0
115000,2,0,0,1,0,0,0
174000,6,1,0,1,0,0,0
183000,15,15,0,1,0,0,0
93000,3,2,1,0,0,0,0
82000,2,2,1,0,0,0,0
95000,2,2,1,0,0,0,0
152000,15,10,1,0,0,0,0
75000,0,0,0,1,0,0,0
110000,5,4,0,0,0,1,0
247000,9,0,0,1,0,0,0
195000,10,10,0,1,0,0,0
134000,16,16,1,0,0,0,0
106000,5,2,1,0,0,0,0
78000,0,0,1,0,0,0,0
84000,2,2,1,0,0,0,0
145000,10,0,0,1,0,0,0
128000,6,2,1,0,0,0,0
69000,2,2,1,0,0,0,0
198000,10,0,1,0,0,0,0
82000,4,0,0,1,0,0,0
160000,7,2,0,1,0,0,0
167000,20,4,0,1,0,0,0
144000,10,2,1,0,0,0,0
67000,2,2,0,1,0,0,0
220000,6,0,1,0,0,0,0
86000,1,1,0,1,0,0,0
198000,20,1,0,1,0,0,0
100000,8,8,1,0,0,0,0
88000,9,2,1,0,0,0,0
79000,4,4,0,1,0,0,0
350000,20,0,0,1,0,0,0
128000,2,0,0,1,0,0,0
191000,12,0,0,1,0,0,0
235000,7,5,1,0,0,0,0
154000,10,2,0,1,0,0,0
85000,0,0,0,1,0,0,0
104000,10,10,1,0,0,0,0
174000,7,1,0,0,0,0,1
102000,5,1,0,1,0,0,0
122000,8,3,1,0,0,0,0
144000,4,1,1,0,0,0,0
106000,8,1,0,1,0,0,0
90000,0,0,0,1,0,0,0
97000,3,3,1,0,0,0,0
173000,7,1,0,0,0,0,1
96000,2,2,0,1,0,0,0
